<?xml version="1.0" encoding="utf-8"?>
<!DOCTYPE svg PUBLIC "-//W3C//DTD SVG 1.1//EN" "http://www.w3.org/Graphics/SVG/1.1/DTD/svg11.dtd">
<svg version="1.1" xmlns="http://www.w3.org/2000/svg" xmlns:xlink="http://www.w3.org/1999/xlink" x="0px" y="0px" width="400px"
	 height="350px" viewBox="0 0 400 350" enable-background="new 0 0 400 350" xml:space="preserve">
<g id="Skizze">
	<rect id="Hintergrund" fill="#FFFFFF" width="400" height="350"/>
	<polygon id="Prisma" fill="#E6E6E6" points="34.72,305.958 369.355,305.958 202.037,34.066 	"/>
	<g id="Winkel">
		<path id="W_x5F_beta1" fill="none" stroke="#FBB03B" d="M169.75,172.593c2.905,7.162,4.744,14.87,5.321,22.928"/>
		<path id="W_x5F_beta2" fill="none" stroke="#FBB03B" d="M220.474,192.467c-0.126-1.785-0.19-3.588-0.19-5.405
			c0-7.718,1.156-15.165,3.306-22.179"/>
		<path id="W_x5F_gamma1" fill="none" stroke="#808080" d="M175.068,195.47c0.132,1.825,0.199,3.668,0.199,5.527
			c0,14.328-3.986,27.726-10.909,39.144"/>
		<path id="W_x5F_gamma2" fill="none" stroke="#808080" d="M231.504,226.713c-6.226-10.086-10.146-21.746-11.03-34.246"/>
		<path id="W_x5F_alpha1" fill="none" stroke="#FBB03B" d="M62.116,215.777c-1.845-4.633-2.859-9.686-2.859-14.976
			c0-7.911,2.269-15.292,6.191-21.528"/>
		<path id="W_x5F_alpha2" fill="none" stroke="#FBB03B" d="M331.619,165.747c3.893,6.22,6.143,13.573,6.143,21.452
			c0,4.073-0.602,8.006-1.72,11.714"/>
		<path id="W_x5F_epsilonOben" fill="none" stroke="#808080" d="M215.154,55.383c-3.814,2.352-8.308,3.708-13.117,3.708
			s-9.303-1.357-13.117-3.709"/>
		<path id="W_x5F_epsilonUnten" fill="none" stroke="#808080" d="M165.628,267.246c-2.406-3.844-3.796-8.388-3.796-13.257
			c0-4.811,1.357-9.305,3.71-13.119"/>
		<path id="W_x5F_deltaFuellung" opacity="0.2" fill="#FBB03B" d="M365.383,208.202c4.881-15.869,7.155-31.565,7.155-49.035
			c0-22.433-4.332-43.854-12.206-63.473l-156.405,63.181L365.383,208.202z"/>
		<path id="W_x5F_delta" fill="none" stroke="#FBB03B" d="M360.332,95.694c7.874,19.618,12.206,41.04,12.206,63.473
			c0,17.47-2.627,34.326-7.508,50.195"/>
	</g>
	<polygon id="PrismaKontur" fill="none" stroke="#000000" stroke-width="0.5" points="34.72,305.958 369.355,305.958 
		202.037,34.066 	"/>
	<g id="Strahlen">
		<line id="LotEin" fill="none" stroke="#808080" x1="213.5" y1="270.383" x2="31.987" y2="158.682"/>
		<line id="LotAus" fill="none" stroke="#808080" x1="159" y1="271.322" x2="363.895" y2="145.232"/>
		<polyline id="Lichtstrahl" fill="none" stroke="#FBB03B" stroke-width="2" points="5.987,238.3 99.429,200.806 296.188,187.062 
			397.241,217.936 		"/>
		
			<line id="StrahlFortsetzungEin" fill="none" stroke="#FBB03B" stroke-dasharray="4,4" x1="5.987" y1="238.3" x2="397.241" y2="81.307"/>
		
			<line id="StrahlFortsetzungAus" fill="none" stroke="#FBB03B" stroke-dasharray="4,4" x1="397.241" y1="217.936" x2="136.97" y2="138.419"/>
	</g>
</g>
<g id="Beschriftung">
	<g id="Winkel_1_">
		<g id="alpha_x5F_1">
			<g>
				<path d="M71.711,193.483h1.438c-0.365,1.146-0.701,2.528-1.008,4.148c0.364,2.011,0.7,3.394,1.008,4.148H71.75
					c-0.224-0.521-0.394-1.026-0.508-1.516c-0.433,1.136-1.336,1.703-2.711,1.703c-1.042,0-1.88-0.391-2.516-1.172
					c-0.636-0.781-0.953-1.841-0.953-3.18c0-1.375,0.319-2.438,0.957-3.191c0.638-0.753,1.483-1.129,2.535-1.129
					c0.651,0,1.182,0.132,1.594,0.395c0.411,0.263,0.794,0.663,1.148,1.199C71.333,194.707,71.471,194.238,71.711,193.483z
					 M68.789,194.46c-0.672,0-1.203,0.271-1.594,0.813s-0.586,1.323-0.586,2.344c0,0.995,0.185,1.776,0.555,2.344
					c0.37,0.567,0.885,0.852,1.547,0.852c0.646,0,1.185-0.28,1.617-0.84c0.432-0.56,0.648-1.366,0.648-2.418
					c0-1.021-0.202-1.792-0.605-2.313C69.967,194.721,69.44,194.46,68.789,194.46z"/>
			</g>
			<g>
				<path d="M80.716,205.78h-1.23v-7.841c-0.296,0.283-0.685,0.564-1.166,0.848s-0.913,0.494-1.295,0.636v-1.189
					c0.688-0.323,1.29-0.716,1.805-1.176s0.879-0.907,1.094-1.34h0.793V205.78z"/>
			</g>
		</g>
		<g id="alpha_x5F_2">
			<g>
				<path d="M320.044,178.902h1.438c-0.364,1.146-0.7,2.529-1.008,4.148c0.364,2.011,0.7,3.394,1.008,4.148h-1.398
					c-0.224-0.521-0.394-1.025-0.508-1.516c-0.433,1.136-1.336,1.703-2.711,1.703c-1.042,0-1.88-0.391-2.516-1.172
					s-0.953-1.841-0.953-3.18c0-1.375,0.319-2.438,0.957-3.191c0.638-0.752,1.483-1.129,2.535-1.129
					c0.651,0,1.183,0.132,1.594,0.395c0.411,0.264,0.794,0.663,1.148,1.199C319.666,180.127,319.805,179.658,320.044,178.902z
					 M317.122,179.879c-0.672,0-1.203,0.271-1.594,0.813c-0.391,0.542-0.586,1.323-0.586,2.344c0,0.995,0.185,1.776,0.555,2.344
					c0.37,0.568,0.886,0.852,1.547,0.852c0.646,0,1.185-0.279,1.617-0.84c0.433-0.56,0.648-1.365,0.648-2.418
					c0-1.021-0.202-1.791-0.605-2.313C318.301,180.14,317.773,179.879,317.122,179.879z"/>
			</g>
			<g>
				<path d="M330.881,190.017v1.183h-6.624c-0.009-0.297,0.038-0.581,0.144-0.854c0.168-0.451,0.438-0.896,0.811-1.333
					c0.371-0.438,0.908-0.943,1.609-1.518c1.09-0.893,1.825-1.601,2.208-2.123c0.383-0.521,0.574-1.015,0.574-1.479
					c0-0.487-0.175-0.899-0.522-1.233c-0.35-0.336-0.804-0.503-1.364-0.503c-0.593,0-1.066,0.178-1.422,0.533
					s-0.536,0.848-0.54,1.477l-1.265-0.13c0.087-0.943,0.413-1.662,0.978-2.156c0.564-0.495,1.324-0.742,2.276-0.742
					c0.962,0,1.723,0.267,2.283,0.8s0.841,1.194,0.841,1.982c0,0.401-0.082,0.796-0.246,1.183s-0.437,0.795-0.816,1.224
					c-0.381,0.429-1.014,1.017-1.897,1.764c-0.738,0.62-1.212,1.04-1.422,1.261c-0.21,0.222-0.383,0.443-0.52,0.667H330.881z"/>
			</g>
		</g>
		<g id="beta_x5F_1">
			<g>
				<path d="M154.492,190.18v4.234h-1.398v-11.039c0-0.88,0.118-1.568,0.355-2.066c0.237-0.497,0.645-0.908,1.223-1.234
					c0.578-0.325,1.222-0.488,1.93-0.488c1.047,0,1.84,0.301,2.379,0.902s0.809,1.26,0.809,1.973c0,0.698-0.218,1.261-0.652,1.688
					c-0.435,0.428-0.934,0.69-1.496,0.789c0.906,0.089,1.605,0.414,2.098,0.977s0.738,1.256,0.738,2.078
					c0,0.886-0.29,1.679-0.871,2.379c-0.581,0.701-1.421,1.051-2.52,1.051C155.961,191.422,155.097,191.008,154.492,190.18z
					 M155.734,184.484c0.958,0,1.656-0.166,2.094-0.5c0.438-0.333,0.656-0.814,0.656-1.445c0-0.51-0.187-0.938-0.559-1.281
					s-0.837-0.516-1.395-0.516c-0.484,0-0.905,0.128-1.262,0.383c-0.356,0.256-0.575,0.539-0.656,0.852s-0.121,0.859-0.121,1.641
					v3.148c0,0.896,0.063,1.555,0.188,1.977s0.394,0.803,0.805,1.141c0.411,0.339,0.886,0.508,1.422,0.508
					c0.651,0,1.165-0.223,1.543-0.668s0.566-0.996,0.566-1.652c0-0.541-0.14-1.027-0.418-1.457s-0.622-0.721-1.031-0.875
					c-0.409-0.153-0.952-0.23-1.629-0.23h-0.203V184.484z"/>
			</g>
			<g>
				<path d="M167.216,195.234h-1.23v-7.841c-0.296,0.282-0.685,0.565-1.165,0.848c-0.481,0.282-0.913,0.495-1.296,0.636v-1.189
					c0.688-0.324,1.29-0.715,1.805-1.176s0.88-0.906,1.094-1.34h0.793V195.234z"/>
			</g>
		</g>
		<g id="beta_x5F_2">
			<g>
				<path d="M230.492,182.634v4.234h-1.398v-11.039c0-0.88,0.118-1.569,0.355-2.066s0.645-0.909,1.223-1.234s1.222-0.488,1.93-0.488
					c1.047,0,1.84,0.301,2.379,0.902s0.809,1.259,0.809,1.973c0,0.698-0.218,1.261-0.652,1.688s-0.934,0.69-1.496,0.789
					c0.906,0.089,1.605,0.414,2.098,0.977s0.738,1.255,0.738,2.078c0,0.886-0.29,1.679-0.871,2.379s-1.421,1.051-2.52,1.051
					C231.961,183.876,231.097,183.462,230.492,182.634z M231.734,176.938c0.958,0,1.656-0.167,2.094-0.5s0.656-0.815,0.656-1.445
					c0-0.511-0.187-0.938-0.559-1.281s-0.837-0.516-1.395-0.516c-0.484,0-0.905,0.128-1.262,0.383s-0.575,0.539-0.656,0.852
					s-0.121,0.859-0.121,1.641v3.148c0,0.896,0.063,1.555,0.188,1.977s0.394,0.802,0.805,1.141s0.886,0.508,1.422,0.508
					c0.651,0,1.165-0.223,1.543-0.668s0.566-0.996,0.566-1.652c0-0.542-0.14-1.027-0.418-1.457s-0.622-0.722-1.031-0.875
					s-0.952-0.23-1.629-0.23h-0.203V176.938z"/>
			</g>
			<g>
				<path d="M245.048,186.506v1.183h-6.624c-0.009-0.296,0.039-0.581,0.144-0.854c0.169-0.451,0.438-0.896,0.81-1.333
					c0.372-0.438,0.908-0.943,1.61-1.518c1.089-0.894,1.825-1.601,2.208-2.122c0.383-0.522,0.574-1.016,0.574-1.48
					c0-0.488-0.174-0.898-0.523-1.234c-0.348-0.334-0.803-0.502-1.363-0.502c-0.593,0-1.066,0.178-1.422,0.533
					s-0.535,0.848-0.54,1.477l-1.265-0.13c0.087-0.943,0.412-1.662,0.978-2.157c0.565-0.494,1.324-0.741,2.276-0.741
					c0.962,0,1.723,0.267,2.283,0.8s0.841,1.193,0.841,1.982c0,0.4-0.082,0.795-0.246,1.183s-0.437,0.796-0.817,1.224
					c-0.38,0.428-1.013,1.016-1.896,1.764c-0.738,0.619-1.212,1.04-1.422,1.262c-0.21,0.221-0.383,0.443-0.52,0.666H245.048z"/>
			</g>
		</g>
		<g id="gamma_x5F_1">
			<g>
				<path d="M145.695,206.235h1.477l2.32,6.539l2.375-6.539h1.438l-3.102,8.297v3.18h-1.43v-3.18L145.695,206.235z"/>
			</g>
			<g>
				<path d="M160.461,220.532h-1.406v-8.961c-0.339,0.323-0.782,0.646-1.332,0.969s-1.043,0.565-1.48,0.727v-1.359
					c0.786-0.37,1.474-0.817,2.063-1.344s1.005-1.036,1.25-1.531h0.906V220.532z"/>
			</g>
		</g>
		<g id="gamma_x5F_2">
			<g>
				<path d="M231.195,198.968h1.477l2.32,6.539l2.375-6.539h1.438l-3.102,8.297v3.18h-1.43v-3.18L231.195,198.968z"/>
			</g>
			<g>
				<path d="M248.055,211.913v1.352h-7.57c-0.011-0.339,0.044-0.664,0.164-0.977c0.192-0.516,0.501-1.023,0.926-1.523
					s1.038-1.078,1.84-1.734c1.245-1.021,2.086-1.829,2.523-2.426s0.656-1.16,0.656-1.691c0-0.558-0.199-1.027-0.598-1.41
					s-0.918-0.574-1.559-0.574c-0.677,0-1.219,0.203-1.625,0.609s-0.612,0.969-0.617,1.688l-1.445-0.148
					c0.099-1.078,0.472-1.899,1.117-2.465s1.513-0.848,2.602-0.848c1.099,0,1.969,0.305,2.609,0.914s0.961,1.364,0.961,2.266
					c0,0.458-0.094,0.909-0.281,1.352s-0.499,0.909-0.934,1.398s-1.157,1.161-2.168,2.016c-0.844,0.708-1.386,1.188-1.625,1.441
					s-0.438,0.507-0.594,0.762H248.055z"/>
			</g>
		</g>
		<g>
			<path d="M295.942,145.229h6.258v1.141h-4.375c0.521,0.531,1.336,1.18,2.445,1.945c0.989,0.688,1.68,1.326,2.07,1.914
				c0.391,0.589,0.586,1.386,0.586,2.391c0,1.349-0.363,2.395-1.09,3.137s-1.673,1.113-2.84,1.113c-1.276,0-2.237-0.417-2.883-1.25
				c-0.646-0.833-0.969-1.823-0.969-2.969c0-1.333,0.341-2.35,1.023-3.051c0.683-0.7,1.497-1.069,2.445-1.105
				c-0.484-0.338-1.375-1.088-2.672-2.25V145.229z M296.583,152.666c0,0.886,0.233,1.615,0.699,2.188
				c0.466,0.573,1.062,0.859,1.785,0.859c0.636,0,1.196-0.245,1.684-0.734c0.487-0.489,0.73-1.263,0.73-2.32
				c0-0.979-0.231-1.737-0.695-2.273c-0.464-0.536-1.047-0.805-1.75-0.805c-0.776,0-1.379,0.302-1.809,0.906
				C296.798,151.091,296.583,151.817,296.583,152.666z"/>
		</g>
		<g>
			<path d="M204.852,45.641l-1.008,0.813c-0.641-0.484-1.24-0.727-1.797-0.727c-0.459,0-0.793,0.123-1.004,0.367
				c-0.211,0.245-0.316,0.508-0.316,0.789c0,0.365,0.156,0.668,0.469,0.91s0.771,0.363,1.375,0.363c0.078,0,0.208-0.002,0.391-0.008
				v1.18c-0.167-0.005-0.292-0.008-0.375-0.008c-0.745,0-1.262,0.144-1.551,0.43c-0.289,0.287-0.434,0.609-0.434,0.969
				c0,0.37,0.146,0.681,0.438,0.934c0.291,0.253,0.638,0.379,1.039,0.379c0.734,0,1.422-0.341,2.063-1.023l1.008,0.852
				c-0.834,0.886-1.87,1.328-3.109,1.328c-0.975,0-1.701-0.247-2.18-0.742c-0.479-0.495-0.719-1.07-0.719-1.727
				c0-0.942,0.458-1.612,1.375-2.008c-0.766-0.432-1.148-1.028-1.148-1.789c0-0.62,0.227-1.176,0.68-1.668s1.148-0.738,2.086-0.738
				C203.205,44.516,204.111,44.891,204.852,45.641z"/>
		</g>
		<g>
			<path d="M174.176,250.391l-1.008,0.813c-0.641-0.484-1.24-0.727-1.797-0.727c-0.458,0-0.793,0.123-1.004,0.367
				c-0.211,0.245-0.316,0.508-0.316,0.789c0,0.365,0.156,0.668,0.469,0.91s0.771,0.363,1.375,0.363c0.078,0,0.208-0.002,0.391-0.008
				v1.18c-0.167-0.005-0.292-0.008-0.375-0.008c-0.745,0-1.262,0.144-1.551,0.43c-0.289,0.287-0.434,0.609-0.434,0.969
				c0,0.37,0.146,0.682,0.438,0.934c0.292,0.253,0.638,0.379,1.039,0.379c0.734,0,1.422-0.341,2.063-1.023l1.008,0.852
				c-0.833,0.886-1.87,1.328-3.109,1.328c-0.974,0-1.701-0.247-2.18-0.742c-0.479-0.494-0.719-1.07-0.719-1.727
				c0-0.942,0.458-1.611,1.375-2.008c-0.766-0.432-1.148-1.028-1.148-1.789c0-0.619,0.227-1.176,0.68-1.668s1.148-0.738,2.086-0.738
				C172.53,249.266,173.436,249.641,174.176,250.391z"/>
		</g>
		<g id="Formel">
			<g>
				<path d="M254.731,58.01h1.477l2.32,6.539l2.375-6.539h1.438l-3.102,8.297v3.18h-1.43v-3.18L254.731,58.01z"/>
				<path d="M284.325,59.573h-7.563V58.26h7.563V59.573z M284.325,63.049h-7.563v-1.313h7.563V63.049z"/>
				<path d="M296.872,58.01h1.438c-0.364,1.146-0.7,2.529-1.008,4.148c0.364,2.01,0.7,3.393,1.008,4.148h-1.398
					c-0.224-0.521-0.394-1.026-0.508-1.516c-0.433,1.135-1.336,1.703-2.711,1.703c-1.042,0-1.88-0.391-2.516-1.172
					s-0.953-1.841-0.953-3.18c0-1.375,0.319-2.439,0.957-3.191s1.483-1.129,2.535-1.129c0.651,0,1.183,0.131,1.594,0.395
					s0.794,0.663,1.148,1.199C296.494,59.234,296.633,58.766,296.872,58.01z M293.95,58.987c-0.672,0-1.203,0.271-1.594,0.813
					s-0.586,1.323-0.586,2.344c0,0.995,0.185,1.776,0.555,2.344s0.886,0.852,1.547,0.852c0.646,0,1.185-0.28,1.617-0.84
					s0.648-1.366,0.648-2.418c0-1.021-0.202-1.792-0.605-2.313S294.602,58.987,293.95,58.987z"/>
				<path d="M312.755,62.87v-1.414h4.32v1.414H312.755z"/>
				<path d="M324.513,65.252v4.234h-1.398V58.448c0-0.88,0.118-1.569,0.355-2.066s0.645-0.909,1.223-1.234s1.222-0.488,1.93-0.488
					c1.047,0,1.84,0.301,2.379,0.902s0.809,1.259,0.809,1.973c0,0.698-0.218,1.26-0.652,1.688s-0.934,0.69-1.496,0.789
					c0.906,0.088,1.605,0.414,2.098,0.977s0.738,1.255,0.738,2.078c0,0.885-0.29,1.678-0.871,2.379s-1.421,1.051-2.52,1.051
					C325.981,66.495,325.117,66.081,324.513,65.252z M325.755,59.557c0.958,0,1.656-0.167,2.094-0.5s0.656-0.815,0.656-1.445
					c0-0.51-0.187-0.938-0.559-1.281s-0.837-0.516-1.395-0.516c-0.484,0-0.905,0.127-1.262,0.383s-0.575,0.539-0.656,0.852
					s-0.121,0.859-0.121,1.641v3.148c0,0.896,0.063,1.555,0.188,1.977s0.394,0.802,0.805,1.141s0.886,0.508,1.422,0.508
					c0.651,0,1.165-0.223,1.543-0.668s0.566-0.996,0.566-1.652c0-0.542-0.14-1.027-0.418-1.457s-0.622-0.721-1.031-0.875
					s-0.952-0.23-1.629-0.23h-0.203V59.557z"/>
			</g>
			<g>
				<path d="M267.752,70.307h-1.23v-7.841c-0.296,0.283-0.685,0.565-1.165,0.848c-0.481,0.283-0.913,0.495-1.296,0.636V62.76
					c0.688-0.324,1.29-0.715,1.805-1.176s0.88-0.907,1.094-1.34h0.793V70.307z"/>
			</g>
			<g>
				<path d="M306.752,70.307h-1.23v-7.841c-0.296,0.283-0.685,0.565-1.165,0.848c-0.481,0.283-0.913,0.495-1.296,0.636V62.76
					c0.688-0.324,1.29-0.715,1.805-1.176s0.88-0.907,1.094-1.34h0.793V70.307z"/>
			</g>
			<g>
				<path d="M336.752,70.307h-1.23v-7.841c-0.296,0.283-0.685,0.565-1.165,0.848c-0.481,0.283-0.913,0.495-1.296,0.636V62.76
					c0.688-0.324,1.29-0.715,1.805-1.176s0.88-0.907,1.094-1.34h0.793V70.307z"/>
			</g>
		</g>
	</g>
	<g id="Laengen">
		<g id="DoppelPfeil_5_">
			<polygon id="PfeilGerade_9_" fill="#1A171B" points="369.355,319.622 360.555,322.907 361.316,319.667 360.555,316.427 			"/>
			<polygon id="PfeilGerade_8_" fill="#1A171B" points="34.72,319.622 43.52,322.907 42.757,319.667 43.519,316.427 			"/>
			<line fill="none" stroke="#1A171B" x1="39.12" y1="319.667" x2="364.955" y2="319.667"/>
		</g>
		<g>
			<path d="M177.029,340.667l2.398-11.453h3.547c0.646,0,1.125,0.026,1.438,0.078c0.51,0.089,0.941,0.243,1.293,0.465
				s0.624,0.523,0.816,0.906s0.289,0.806,0.289,1.27c0,0.63-0.173,1.185-0.52,1.664s-0.876,0.844-1.59,1.094
				c0.62,0.203,1.083,0.509,1.391,0.918s0.461,0.887,0.461,1.434c0,0.63-0.181,1.234-0.543,1.813s-0.841,1.024-1.438,1.34
				s-1.262,0.473-1.996,0.473H177.029z M178.833,339.37h2.609c0.693,0,1.159-0.023,1.398-0.07c0.484-0.083,0.877-0.226,1.18-0.426
				s0.539-0.465,0.711-0.793s0.258-0.672,0.258-1.031c0-0.536-0.168-0.944-0.504-1.223s-0.975-0.418-1.918-0.418h-2.906
				L178.833,339.37z M179.935,334.104h2.32c1.109,0,1.908-0.177,2.395-0.531s0.73-0.87,0.73-1.547c0-0.323-0.076-0.602-0.227-0.836
				s-0.353-0.405-0.605-0.512s-0.728-0.16-1.426-0.16h-2.438L179.935,334.104z"/>
			<path d="M193.13,339.636c-0.49,0.422-0.961,0.73-1.414,0.926s-0.938,0.293-1.453,0.293c-0.766,0-1.383-0.226-1.852-0.676
				s-0.703-1.027-0.703-1.73c0-0.464,0.105-0.874,0.316-1.23s0.491-0.644,0.84-0.859s0.776-0.371,1.281-0.465
				c0.318-0.063,0.92-0.112,1.809-0.148s1.525-0.13,1.91-0.281c0.109-0.386,0.164-0.706,0.164-0.961c0-0.328-0.12-0.586-0.359-0.773
				c-0.328-0.261-0.807-0.391-1.438-0.391c-0.594,0-1.08,0.132-1.457,0.395s-0.652,0.637-0.824,1.121l-1.43-0.125
				c0.292-0.823,0.754-1.453,1.387-1.891s1.431-0.656,2.395-0.656c1.026,0,1.838,0.245,2.438,0.734
				c0.458,0.364,0.688,0.839,0.688,1.422c0,0.442-0.065,0.956-0.195,1.539l-0.461,2.063c-0.146,0.656-0.219,1.19-0.219,1.602
				c0,0.261,0.057,0.636,0.172,1.125h-1.43C193.216,340.396,193.162,340.053,193.13,339.636z M193.654,336.464
				c-0.198,0.078-0.41,0.138-0.637,0.18s-0.605,0.086-1.137,0.133c-0.823,0.073-1.404,0.165-1.742,0.277s-0.594,0.29-0.766,0.535
				s-0.258,0.516-0.258,0.813c0,0.396,0.137,0.722,0.41,0.977s0.663,0.383,1.168,0.383c0.469,0,0.919-0.124,1.352-0.371
				s0.773-0.593,1.023-1.035S193.513,337.281,193.654,336.464z"/>
			<path d="M196.568,337.831l1.414-0.086c0,0.406,0.063,0.753,0.188,1.039s0.355,0.521,0.691,0.703s0.728,0.273,1.176,0.273
				c0.625,0,1.094-0.125,1.407-0.375s0.469-0.544,0.469-0.883c0-0.245-0.094-0.477-0.281-0.695
				c-0.193-0.219-0.663-0.488-1.411-0.809s-1.225-0.546-1.434-0.676c-0.349-0.214-0.612-0.465-0.789-0.754s-0.266-0.621-0.266-0.996
				c0-0.656,0.26-1.219,0.781-1.688s1.25-0.703,2.188-0.703c1.042,0,1.834,0.241,2.379,0.723c0.544,0.481,0.826,1.116,0.848,1.902
				l-1.383,0.094c-0.021-0.5-0.198-0.896-0.531-1.188c-0.334-0.292-0.805-0.438-1.415-0.438c-0.49,0-0.87,0.112-1.141,0.336
				s-0.406,0.466-0.406,0.727s0.117,0.489,0.352,0.688c0.156,0.136,0.56,0.344,1.211,0.625c1.083,0.469,1.766,0.839,2.047,1.109
				c0.447,0.433,0.672,0.958,0.672,1.578c0,0.411-0.127,0.815-0.379,1.211c-0.253,0.396-0.639,0.712-1.156,0.949
				c-0.519,0.237-1.129,0.355-1.833,0.355c-0.958,0-1.773-0.237-2.445-0.711S196.531,338.898,196.568,337.831z"/>
			<path d="M204.381,340.667l1.734-8.297h1.414l-1.734,8.297H204.381z M206.443,330.815l0.336-1.602h1.406l-0.336,1.602H206.443z"/>
			<path d="M208.123,337.831l1.414-0.086c0,0.406,0.063,0.753,0.188,1.039s0.355,0.521,0.691,0.703s0.728,0.273,1.176,0.273
				c0.625,0,1.094-0.125,1.406-0.375s0.469-0.544,0.469-0.883c0-0.245-0.094-0.477-0.281-0.695c-0.192-0.219-0.663-0.488-1.41-0.809
				s-1.226-0.546-1.434-0.676c-0.349-0.214-0.612-0.465-0.789-0.754s-0.266-0.621-0.266-0.996c0-0.656,0.261-1.219,0.781-1.688
				s1.25-0.703,2.188-0.703c1.042,0,1.835,0.241,2.379,0.723s0.827,1.116,0.848,1.902l-1.383,0.094
				c-0.021-0.5-0.198-0.896-0.531-1.188s-0.805-0.438-1.414-0.438c-0.489,0-0.87,0.112-1.141,0.336s-0.406,0.466-0.406,0.727
				s0.117,0.489,0.352,0.688c0.156,0.136,0.56,0.344,1.211,0.625c1.083,0.469,1.766,0.839,2.047,1.109
				c0.448,0.433,0.672,0.958,0.672,1.578c0,0.411-0.126,0.815-0.379,1.211s-0.638,0.712-1.156,0.949s-1.129,0.355-1.832,0.355
				c-0.958,0-1.773-0.237-2.445-0.711S208.087,338.898,208.123,337.831z"/>
			<path d="M220.396,338.19l1.391-0.219c0.078,0.558,0.296,0.984,0.652,1.281s0.855,0.445,1.496,0.445
				c0.646,0,1.125-0.132,1.438-0.395s0.469-0.571,0.469-0.926c0-0.317-0.138-0.567-0.414-0.75c-0.192-0.125-0.672-0.284-1.438-0.477
				c-1.031-0.261-1.746-0.485-2.145-0.676s-0.7-0.453-0.906-0.789s-0.309-0.707-0.309-1.113c0-0.37,0.085-0.712,0.254-1.027
				s0.399-0.577,0.691-0.785c0.219-0.161,0.517-0.298,0.895-0.41s0.782-0.168,1.215-0.168c0.651,0,1.223,0.094,1.715,0.281
				s0.855,0.441,1.09,0.762s0.396,0.749,0.484,1.285l-1.375,0.188c-0.063-0.427-0.243-0.761-0.543-1s-0.723-0.359-1.27-0.359
				c-0.646,0-1.106,0.106-1.383,0.32s-0.414,0.464-0.414,0.75c0,0.183,0.058,0.347,0.172,0.492c0.114,0.151,0.294,0.276,0.539,0.375
				c0.141,0.052,0.555,0.172,1.242,0.359c0.995,0.266,1.688,0.483,2.082,0.652s0.702,0.415,0.926,0.738s0.336,0.724,0.336,1.203
				c0,0.469-0.137,0.91-0.41,1.324s-0.668,0.734-1.184,0.961s-1.099,0.34-1.75,0.34c-1.078,0-1.899-0.224-2.465-0.672
				S220.553,339.07,220.396,338.19z"/>
		</g>
	</g>
	<g id="Text">
		<g>
			<path fill="#808080" d="M5.386,154.948l2.398-11.453h8.266l-0.273,1.305H9.042l-0.75,3.563h6.563l-0.273,1.305H8.019
				l-0.828,3.984h7.211l-0.273,1.297H5.386z"/>
			<path fill="#808080" d="M15.815,154.948l1.734-8.297h1.414l-1.734,8.297H15.815z M17.878,145.097l0.336-1.602h1.406l-0.336,1.602
				H17.878z"/>
			<path fill="#808080" d="M19.425,154.948l1.734-8.297h1.281l-0.305,1.445c0.557-0.568,1.078-0.982,1.563-1.242
				s0.979-0.391,1.484-0.391c0.672,0,1.199,0.182,1.582,0.547s0.574,0.852,0.574,1.461c0,0.307-0.068,0.792-0.203,1.453
				l-1.055,5.023h-1.414l1.102-5.258c0.109-0.51,0.164-0.888,0.164-1.133c0-0.276-0.095-0.5-0.285-0.672
				c-0.19-0.172-0.465-0.258-0.824-0.258c-0.724,0-1.369,0.26-1.934,0.781c-0.565,0.521-0.98,1.414-1.246,2.68l-0.805,3.859H19.425z
				"/>
			<path fill="#808080" d="M28.519,154.948l1.508-7.203h-1.266l0.227-1.094h1.266l0.242-1.18c0.125-0.588,0.254-1.013,0.387-1.273
				s0.349-0.475,0.648-0.645c0.299-0.169,0.707-0.254,1.223-0.254c0.359,0,0.88,0.076,1.563,0.227l-0.258,1.234
				c-0.479-0.125-0.88-0.188-1.203-0.188c-0.276,0-0.486,0.069-0.629,0.207c-0.144,0.138-0.267,0.465-0.371,0.98l-0.188,0.891h1.578
				l-0.227,1.094H31.44l-1.508,7.203H28.519z"/>
			<path fill="#808080" d="M38.362,153.917c-0.49,0.422-0.961,0.73-1.414,0.926s-0.938,0.293-1.453,0.293
				c-0.766,0-1.383-0.225-1.852-0.676s-0.703-1.027-0.703-1.73c0-0.463,0.105-0.874,0.316-1.23s0.491-0.643,0.84-0.859
				c0.349-0.216,0.776-0.371,1.281-0.465c0.317-0.063,0.92-0.112,1.809-0.148c0.888-0.037,1.524-0.13,1.91-0.281
				c0.109-0.385,0.164-0.706,0.164-0.961c0-0.328-0.12-0.586-0.359-0.773c-0.328-0.26-0.808-0.391-1.438-0.391
				c-0.594,0-1.08,0.131-1.457,0.395c-0.378,0.263-0.652,0.637-0.824,1.121l-1.43-0.125c0.292-0.823,0.754-1.453,1.387-1.891
				s1.431-0.656,2.395-0.656c1.026,0,1.838,0.245,2.438,0.734c0.458,0.365,0.688,0.838,0.688,1.422c0,0.443-0.065,0.956-0.195,1.539
				l-0.461,2.063c-0.146,0.656-0.219,1.19-0.219,1.602c0,0.26,0.057,0.635,0.172,1.125h-1.43
				C38.448,154.677,38.394,154.333,38.362,153.917z M38.886,150.745c-0.198,0.078-0.41,0.138-0.637,0.18s-0.605,0.086-1.137,0.133
				c-0.823,0.073-1.404,0.166-1.742,0.277c-0.339,0.112-0.594,0.291-0.766,0.535s-0.258,0.516-0.258,0.813
				c0,0.396,0.137,0.721,0.41,0.977s0.663,0.383,1.168,0.383c0.469,0,0.919-0.124,1.352-0.371c0.432-0.248,0.773-0.592,1.023-1.035
				S38.745,151.563,38.886,150.745z"/>
			<path fill="#808080" d="M41.558,154.948l2.391-11.453h1.414l-2.391,11.453H41.558z"/>
			<path fill="#808080" d="M45.112,154.948l2.391-11.453h1.414l-2.391,11.453H45.112z"/>
			<path fill="#808080" d="M48.909,152.112l1.414-0.086c0,0.406,0.063,0.752,0.188,1.039s0.355,0.521,0.691,0.703
				s0.728,0.273,1.176,0.273c0.625,0,1.094-0.125,1.406-0.375s0.469-0.544,0.469-0.883c0-0.245-0.094-0.477-0.281-0.695
				c-0.193-0.219-0.663-0.488-1.41-0.809c-0.748-0.32-1.226-0.545-1.434-0.676c-0.349-0.213-0.612-0.465-0.789-0.754
				c-0.177-0.289-0.266-0.621-0.266-0.996c0-0.656,0.26-1.219,0.781-1.688c0.521-0.469,1.25-0.703,2.188-0.703
				c1.042,0,1.834,0.241,2.379,0.723c0.544,0.482,0.827,1.116,0.848,1.902l-1.383,0.094c-0.021-0.5-0.198-0.896-0.531-1.188
				c-0.333-0.292-0.805-0.438-1.414-0.438c-0.49,0-0.87,0.112-1.141,0.336c-0.271,0.224-0.406,0.466-0.406,0.727
				s0.117,0.49,0.352,0.688c0.156,0.135,0.56,0.344,1.211,0.625c1.083,0.469,1.766,0.838,2.047,1.109
				c0.448,0.432,0.672,0.958,0.672,1.578c0,0.412-0.126,0.815-0.379,1.211c-0.253,0.396-0.638,0.712-1.156,0.949
				c-0.519,0.237-1.129,0.355-1.832,0.355c-0.958,0-1.773-0.237-2.445-0.711S48.873,153.18,48.909,152.112z"/>
			<path fill="#808080" d="M56.667,154.948l2.391-11.453h1.414l-2.391,11.453H56.667z"/>
			<path fill="#808080" d="M60.581,151.8c0-1.62,0.477-2.961,1.43-4.023c0.786-0.875,1.817-1.313,3.094-1.313
				c1,0,1.806,0.313,2.418,0.938c0.612,0.625,0.918,1.469,0.918,2.531c0,0.953-0.193,1.84-0.578,2.66
				c-0.386,0.82-0.934,1.449-1.645,1.887s-1.46,0.656-2.246,0.656c-0.646,0-1.233-0.138-1.762-0.414
				c-0.529-0.276-0.933-0.667-1.211-1.172C60.72,153.044,60.581,152.461,60.581,151.8z M61.995,151.659
				c0,0.781,0.188,1.374,0.563,1.777s0.852,0.605,1.43,0.605c0.302,0,0.602-0.061,0.898-0.184s0.573-0.309,0.828-0.559
				c0.255-0.25,0.473-0.535,0.652-0.855s0.324-0.666,0.434-1.035c0.161-0.516,0.242-1.01,0.242-1.484
				c0-0.75-0.189-1.332-0.566-1.746c-0.378-0.414-0.853-0.621-1.426-0.621c-0.443,0-0.847,0.105-1.211,0.316
				c-0.365,0.211-0.694,0.52-0.988,0.926c-0.294,0.406-0.511,0.879-0.648,1.418C62.064,150.757,61.995,151.237,61.995,151.659z"/>
			<path fill="#808080" d="M72.534,153.8l-0.234,1.156c-0.339,0.088-0.667,0.133-0.984,0.133c-0.563,0-1.011-0.138-1.344-0.414
				c-0.25-0.208-0.375-0.492-0.375-0.852c0-0.182,0.067-0.602,0.203-1.258l1.008-4.82H69.69l0.227-1.094h1.117l0.43-2.039
				l1.617-0.977l-0.633,3.016h1.391l-0.234,1.094h-1.383l-0.961,4.586c-0.12,0.583-0.18,0.932-0.18,1.047
				c0,0.167,0.048,0.294,0.145,0.383c0.096,0.088,0.254,0.133,0.473,0.133C72.011,153.894,72.289,153.862,72.534,153.8z"/>
		</g>
		<g>
			<path fill="#808080" d="M232.68,238.3l6.492-11.453h1.805l1.891,11.453h-1.484l-0.555-3.297h-4.633l-1.836,3.297H232.68z
				 M236.852,233.823h3.789l-0.445-2.875c-0.172-1.141-0.278-2.091-0.32-2.852c-0.261,0.656-0.641,1.435-1.141,2.336
				L236.852,233.823z"/>
			<path fill="#808080" d="M249.867,236.8c-0.995,1.125-2.013,1.688-3.055,1.688c-0.641,0-1.157-0.184-1.551-0.551
				s-0.59-0.816-0.59-1.348c0-0.349,0.089-0.948,0.266-1.797l1-4.789h1.414l-1.109,5.305c-0.094,0.442-0.141,0.786-0.141,1.031
				c0,0.313,0.095,0.556,0.285,0.73s0.47,0.262,0.84,0.262c0.396,0,0.782-0.097,1.16-0.289s0.703-0.453,0.977-0.781
				s0.496-0.716,0.668-1.164c0.114-0.286,0.247-0.789,0.398-1.508l0.75-3.586h1.414l-1.734,8.297h-1.305L249.867,236.8z"/>
			<path fill="#808080" d="M253.234,235.464l1.414-0.086c0,0.406,0.063,0.753,0.188,1.039s0.355,0.521,0.691,0.703
				s0.728,0.273,1.176,0.273c0.625,0,1.094-0.125,1.406-0.375s0.469-0.544,0.469-0.883c0-0.245-0.094-0.477-0.281-0.695
				c-0.192-0.219-0.663-0.488-1.41-0.809s-1.226-0.546-1.434-0.676c-0.349-0.214-0.612-0.465-0.789-0.754s-0.266-0.621-0.266-0.996
				c0-0.656,0.261-1.219,0.781-1.688s1.25-0.703,2.188-0.703c1.042,0,1.835,0.241,2.379,0.723s0.827,1.116,0.848,1.902l-1.383,0.094
				c-0.021-0.5-0.198-0.896-0.531-1.188s-0.805-0.438-1.414-0.438c-0.489,0-0.87,0.112-1.141,0.336s-0.406,0.466-0.406,0.727
				s0.117,0.489,0.352,0.688c0.156,0.136,0.56,0.344,1.211,0.625c1.083,0.469,1.766,0.839,2.047,1.109
				c0.448,0.433,0.672,0.958,0.672,1.578c0,0.411-0.126,0.815-0.379,1.211s-0.638,0.712-1.156,0.949s-1.129,0.355-1.832,0.355
				c-0.958,0-1.773-0.237-2.445-0.711S253.198,236.531,253.234,235.464z"/>
			<path fill="#808080" d="M261.297,238.3l1.508-7.203h-1.266l0.227-1.094h1.266l0.242-1.18c0.125-0.589,0.254-1.013,0.387-1.273
				s0.349-0.476,0.648-0.645s0.707-0.254,1.223-0.254c0.359,0,0.88,0.075,1.563,0.227l-0.258,1.234
				c-0.479-0.125-0.88-0.188-1.203-0.188c-0.276,0-0.485,0.069-0.629,0.207s-0.267,0.465-0.371,0.98l-0.188,0.891h1.578
				l-0.227,1.094h-1.578l-1.508,7.203H261.297z"/>
			<path fill="#808080" d="M271.141,237.269c-0.489,0.422-0.961,0.73-1.414,0.926s-0.938,0.293-1.453,0.293
				c-0.766,0-1.383-0.226-1.852-0.676s-0.703-1.027-0.703-1.73c0-0.464,0.105-0.874,0.316-1.23s0.491-0.644,0.84-0.859
				s0.776-0.371,1.281-0.465c0.317-0.063,0.921-0.112,1.809-0.148s1.524-0.13,1.91-0.281c0.109-0.386,0.164-0.706,0.164-0.961
				c0-0.328-0.12-0.586-0.359-0.773c-0.328-0.261-0.808-0.391-1.438-0.391c-0.594,0-1.079,0.132-1.457,0.395
				s-0.652,0.637-0.824,1.121l-1.43-0.125c0.292-0.823,0.754-1.453,1.387-1.891s1.431-0.656,2.395-0.656
				c1.026,0,1.839,0.245,2.438,0.734c0.458,0.364,0.688,0.839,0.688,1.422c0,0.442-0.065,0.956-0.195,1.539l-0.461,2.063
				c-0.146,0.656-0.219,1.19-0.219,1.602c0,0.261,0.058,0.636,0.172,1.125h-1.43C271.227,238.029,271.172,237.686,271.141,237.269z
				 M271.664,234.097c-0.198,0.078-0.41,0.138-0.637,0.18s-0.605,0.086-1.137,0.133c-0.823,0.073-1.403,0.165-1.742,0.277
				s-0.594,0.29-0.766,0.535s-0.258,0.516-0.258,0.813c0,0.396,0.137,0.722,0.41,0.977s0.663,0.383,1.168,0.383
				c0.469,0,0.919-0.124,1.352-0.371s0.773-0.593,1.023-1.035S271.523,234.914,271.664,234.097z"/>
			<path fill="#808080" d="M274.336,238.3l2.391-11.453h1.414L275.75,238.3H274.336z"/>
			<path fill="#808080" d="M277.891,238.3l2.391-11.453h1.414l-2.391,11.453H277.891z"/>
			<path fill="#808080" d="M281.688,235.464l1.414-0.086c0,0.406,0.063,0.753,0.188,1.039s0.355,0.521,0.691,0.703
				s0.728,0.273,1.176,0.273c0.625,0,1.094-0.125,1.406-0.375s0.469-0.544,0.469-0.883c0-0.245-0.094-0.477-0.281-0.695
				c-0.192-0.219-0.663-0.488-1.41-0.809s-1.226-0.546-1.434-0.676c-0.349-0.214-0.612-0.465-0.789-0.754s-0.266-0.621-0.266-0.996
				c0-0.656,0.261-1.219,0.781-1.688s1.25-0.703,2.188-0.703c1.042,0,1.835,0.241,2.379,0.723s0.827,1.116,0.848,1.902l-1.383,0.094
				c-0.021-0.5-0.198-0.896-0.531-1.188s-0.805-0.438-1.414-0.438c-0.489,0-0.87,0.112-1.141,0.336s-0.406,0.466-0.406,0.727
				s0.117,0.489,0.352,0.688c0.156,0.136,0.56,0.344,1.211,0.625c1.083,0.469,1.766,0.839,2.047,1.109
				c0.448,0.433,0.672,0.958,0.672,1.578c0,0.411-0.126,0.815-0.379,1.211s-0.638,0.712-1.156,0.949s-1.129,0.355-1.832,0.355
				c-0.958,0-1.773-0.237-2.445-0.711S281.651,236.531,281.688,235.464z"/>
			<path fill="#808080" d="M289.445,238.3l2.391-11.453h1.414l-2.391,11.453H289.445z"/>
			<path fill="#808080" d="M293.359,235.151c0-1.62,0.477-2.961,1.43-4.023c0.786-0.875,1.817-1.313,3.094-1.313
				c1,0,1.806,0.313,2.418,0.938s0.918,1.469,0.918,2.531c0,0.953-0.192,1.84-0.578,2.66s-0.934,1.449-1.645,1.887
				s-1.46,0.656-2.246,0.656c-0.646,0-1.233-0.138-1.762-0.414s-0.933-0.667-1.211-1.172S293.359,235.813,293.359,235.151z
				 M294.773,235.011c0,0.781,0.188,1.374,0.563,1.777s0.852,0.605,1.43,0.605c0.302,0,0.602-0.062,0.898-0.184
				s0.573-0.309,0.828-0.559s0.473-0.535,0.652-0.855s0.324-0.665,0.434-1.035c0.161-0.516,0.242-1.011,0.242-1.484
				c0-0.75-0.188-1.332-0.566-1.746s-0.853-0.621-1.426-0.621c-0.442,0-0.847,0.105-1.211,0.316s-0.694,0.52-0.988,0.926
				s-0.511,0.879-0.648,1.418S294.773,234.589,294.773,235.011z"/>
			<path fill="#808080" d="M305.313,237.151l-0.234,1.156c-0.339,0.089-0.667,0.133-0.984,0.133c-0.563,0-1.011-0.138-1.344-0.414
				c-0.25-0.208-0.375-0.492-0.375-0.852c0-0.183,0.067-0.602,0.203-1.258l1.008-4.82h-1.117l0.227-1.094h1.117l0.43-2.039
				l1.617-0.977l-0.633,3.016h1.391l-0.234,1.094H305l-0.961,4.586c-0.12,0.583-0.18,0.933-0.18,1.047
				c0,0.167,0.048,0.294,0.145,0.383s0.254,0.133,0.473,0.133C304.789,237.245,305.067,237.214,305.313,237.151z"/>
		</g>
		<g>
			<path d="M142.197,22l2.391-11.453h1.414l-0.852,4.094c0.448-0.412,0.854-0.702,1.219-0.871c0.364-0.169,0.745-0.254,1.141-0.254
				c0.776,0,1.423,0.289,1.941,0.867c0.518,0.578,0.777,1.419,0.777,2.523c0,0.734-0.104,1.406-0.313,2.016
				c-0.208,0.609-0.466,1.121-0.773,1.535c-0.308,0.414-0.625,0.745-0.953,0.992s-0.664,0.432-1.008,0.555s-0.675,0.184-0.992,0.184
				c-0.547,0-1.029-0.145-1.445-0.434c-0.417-0.289-0.742-0.73-0.977-1.324L143.439,22H142.197z M144.291,18.594l-0.008,0.266
				c0,0.708,0.169,1.248,0.508,1.617c0.338,0.37,0.76,0.555,1.266,0.555c0.495,0,0.949-0.173,1.363-0.52s0.754-0.887,1.02-1.621
				s0.398-1.412,0.398-2.031c0-0.698-0.168-1.24-0.504-1.625s-0.751-0.578-1.246-0.578c-0.511,0-0.979,0.197-1.406,0.59
				c-0.427,0.393-0.784,0.999-1.07,1.816C144.397,17.672,144.291,18.182,144.291,18.594z"/>
			<path d="M151.096,22l1.734-8.297h1.25l-0.352,1.695c0.427-0.641,0.845-1.115,1.254-1.422c0.409-0.307,0.827-0.461,1.254-0.461
				c0.281,0,0.627,0.102,1.039,0.305l-0.578,1.313c-0.245-0.177-0.513-0.266-0.805-0.266c-0.495,0-1.003,0.276-1.523,0.828
				c-0.521,0.552-0.93,1.544-1.227,2.977L152.439,22H151.096z"/>
			<path d="M162.518,19.18l1.375,0.141c-0.198,0.682-0.652,1.331-1.363,1.945s-1.559,0.922-2.543,0.922
				c-0.615,0-1.179-0.142-1.691-0.426c-0.513-0.284-0.904-0.697-1.172-1.238c-0.269-0.542-0.402-1.159-0.402-1.852
				c0-0.906,0.209-1.785,0.629-2.637c0.419-0.852,0.962-1.484,1.629-1.898c0.667-0.414,1.388-0.621,2.164-0.621
				c0.989,0,1.78,0.307,2.371,0.922s0.887,1.453,0.887,2.516c0,0.406-0.036,0.823-0.109,1.25h-6.109
				c-0.021,0.162-0.031,0.307-0.031,0.438c0,0.776,0.178,1.369,0.535,1.777c0.356,0.409,0.793,0.613,1.309,0.613
				c0.484,0,0.961-0.159,1.43-0.477S162.257,19.779,162.518,19.18z M158.408,17.125h4.656c0.005-0.146,0.008-0.25,0.008-0.313
				c0-0.708-0.177-1.251-0.531-1.629s-0.81-0.566-1.367-0.566c-0.604,0-1.155,0.208-1.652,0.625
				C159.024,15.659,158.653,16.287,158.408,17.125z"/>
			<path d="M171.049,18.977l1.414,0.148c-0.354,1.037-0.858,1.806-1.512,2.309s-1.397,0.754-2.23,0.754
				c-0.901,0-1.632-0.292-2.191-0.875s-0.84-1.398-0.84-2.445c0-0.906,0.18-1.797,0.539-2.672s0.874-1.541,1.543-1.996
				s1.434-0.684,2.293-0.684c0.891,0,1.597,0.251,2.117,0.754s0.781,1.168,0.781,1.996l-1.391,0.094
				c-0.005-0.526-0.157-0.938-0.457-1.234s-0.694-0.445-1.184-0.445c-0.567,0-1.06,0.18-1.477,0.539s-0.743,0.905-0.98,1.637
				s-0.355,1.436-0.355,2.113c0,0.708,0.156,1.24,0.469,1.594s0.698,0.531,1.156,0.531s0.897-0.174,1.316-0.523
				S170.81,19.69,171.049,18.977z"/>
			<path d="M173.322,22l2.391-11.453h1.414l-0.914,4.398c0.526-0.51,1.016-0.876,1.469-1.098s0.919-0.332,1.398-0.332
				c0.688,0,1.222,0.181,1.602,0.543s0.57,0.84,0.57,1.434c0,0.292-0.083,0.828-0.25,1.609L179.979,22h-1.414l1.055-5.023
				c0.151-0.729,0.227-1.188,0.227-1.375c0-0.271-0.094-0.492-0.281-0.664s-0.458-0.258-0.813-0.258
				c-0.511,0-0.997,0.134-1.461,0.402s-0.827,0.635-1.09,1.102s-0.504,1.217-0.723,2.254L174.736,22H173.322z"/>
			<path d="M188.314,19.18l1.375,0.141c-0.198,0.682-0.652,1.331-1.363,1.945s-1.559,0.922-2.543,0.922
				c-0.614,0-1.179-0.142-1.691-0.426s-0.903-0.697-1.172-1.238s-0.402-1.159-0.402-1.852c0-0.906,0.21-1.785,0.629-2.637
				s0.962-1.484,1.629-1.898s1.388-0.621,2.164-0.621c0.989,0,1.78,0.307,2.371,0.922s0.887,1.453,0.887,2.516
				c0,0.406-0.036,0.823-0.109,1.25h-6.109c-0.021,0.162-0.031,0.307-0.031,0.438c0,0.776,0.179,1.369,0.535,1.777
				s0.793,0.613,1.309,0.613c0.484,0,0.961-0.159,1.43-0.477S188.054,19.779,188.314,19.18z M184.205,17.125h4.656
				c0.005-0.146,0.008-0.25,0.008-0.313c0-0.708-0.177-1.251-0.531-1.629s-0.81-0.566-1.367-0.566c-0.604,0-1.155,0.208-1.652,0.625
				S184.45,16.287,184.205,17.125z"/>
			<path d="M191.119,22l1.734-8.297h1.281l-0.305,1.445c0.558-0.568,1.078-0.982,1.563-1.242s0.979-0.391,1.484-0.391
				c0.672,0,1.199,0.182,1.582,0.547s0.574,0.852,0.574,1.461c0,0.307-0.067,0.792-0.203,1.453L197.775,22h-1.414l1.102-5.258
				c0.109-0.51,0.164-0.888,0.164-1.133c0-0.276-0.095-0.5-0.285-0.672s-0.465-0.258-0.824-0.258c-0.724,0-1.368,0.26-1.934,0.781
				s-0.98,1.414-1.246,2.68L192.533,22H191.119z"/>
			<path d="M205.611,20.797c-0.808,0.927-1.651,1.391-2.531,1.391c-0.786,0-1.441-0.291-1.965-0.871s-0.785-1.423-0.785-2.527
				c0-1.01,0.207-1.934,0.621-2.77s0.933-1.462,1.555-1.879s1.246-0.625,1.871-0.625c1.031,0,1.81,0.498,2.336,1.492l0.938-4.461
				h1.406L206.666,22h-1.305L205.611,20.797z M201.736,18.523c0,0.578,0.058,1.034,0.172,1.367s0.31,0.611,0.586,0.832
				s0.606,0.332,0.992,0.332c0.641,0,1.222-0.333,1.742-1c0.698-0.885,1.047-1.979,1.047-3.281c0-0.656-0.172-1.169-0.516-1.539
				s-0.776-0.555-1.297-0.555c-0.339,0-0.647,0.076-0.926,0.227s-0.555,0.408-0.828,0.77s-0.504,0.822-0.691,1.379
				S201.736,18.102,201.736,18.523z"/>
			<path d="M215.01,19.18l1.375,0.141c-0.198,0.682-0.652,1.331-1.363,1.945s-1.559,0.922-2.543,0.922
				c-0.614,0-1.179-0.142-1.691-0.426s-0.903-0.697-1.172-1.238s-0.402-1.159-0.402-1.852c0-0.906,0.21-1.785,0.629-2.637
				s0.962-1.484,1.629-1.898s1.388-0.621,2.164-0.621c0.989,0,1.78,0.307,2.371,0.922s0.887,1.453,0.887,2.516
				c0,0.406-0.036,0.823-0.109,1.25h-6.109c-0.021,0.162-0.031,0.307-0.031,0.438c0,0.776,0.179,1.369,0.535,1.777
				s0.793,0.613,1.309,0.613c0.484,0,0.961-0.159,1.43-0.477S214.749,19.779,215.01,19.18z M210.9,17.125h4.656
				c0.005-0.146,0.008-0.25,0.008-0.313c0-0.708-0.177-1.251-0.531-1.629s-0.81-0.566-1.367-0.566c-0.604,0-1.155,0.208-1.652,0.625
				S211.146,16.287,210.9,17.125z"/>
			<path d="M222.439,22l2.391-11.453h1.531l-1.148,5.516l6.219-5.516h2.156l-5.32,4.664L232.166,22h-1.711l-3.305-5.805
				l-2.398,2.086L223.971,22H222.439z"/>
			<path d="M238.525,20.969c-0.489,0.422-0.961,0.73-1.414,0.926s-0.938,0.293-1.453,0.293c-0.766,0-1.383-0.225-1.852-0.676
				s-0.703-1.027-0.703-1.73c0-0.463,0.105-0.874,0.316-1.23s0.491-0.643,0.84-0.859s0.776-0.371,1.281-0.465
				c0.317-0.063,0.921-0.112,1.809-0.148s1.524-0.13,1.91-0.281c0.109-0.385,0.164-0.706,0.164-0.961
				c0-0.328-0.12-0.586-0.359-0.773c-0.328-0.26-0.808-0.391-1.438-0.391c-0.594,0-1.079,0.131-1.457,0.395
				s-0.652,0.637-0.824,1.121l-1.43-0.125c0.292-0.823,0.754-1.453,1.387-1.891s1.431-0.656,2.395-0.656
				c1.026,0,1.839,0.245,2.438,0.734c0.458,0.365,0.688,0.838,0.688,1.422c0,0.443-0.065,0.956-0.195,1.539l-0.461,2.063
				c-0.146,0.656-0.219,1.19-0.219,1.602c0,0.26,0.058,0.635,0.172,1.125h-1.43C238.611,21.729,238.557,21.385,238.525,20.969z
				 M239.049,17.797c-0.198,0.078-0.41,0.138-0.637,0.18s-0.605,0.086-1.137,0.133c-0.823,0.073-1.403,0.166-1.742,0.277
				s-0.594,0.291-0.766,0.535s-0.258,0.516-0.258,0.813c0,0.396,0.137,0.721,0.41,0.977s0.663,0.383,1.168,0.383
				c0.469,0,0.919-0.124,1.352-0.371s0.773-0.592,1.023-1.035S238.908,18.615,239.049,17.797z"/>
			<path d="M241.83,22l1.734-8.297h1.281l-0.305,1.445c0.558-0.568,1.078-0.982,1.563-1.242s0.979-0.391,1.484-0.391
				c0.672,0,1.199,0.182,1.582,0.547s0.574,0.852,0.574,1.461c0,0.307-0.067,0.792-0.203,1.453L248.486,22h-1.414l1.102-5.258
				c0.109-0.51,0.164-0.888,0.164-1.133c0-0.276-0.095-0.5-0.285-0.672s-0.465-0.258-0.824-0.258c-0.724,0-1.368,0.26-1.934,0.781
				s-0.98,1.414-1.246,2.68L243.244,22H241.83z"/>
			<path d="M254.033,20.852l-0.234,1.156c-0.339,0.088-0.667,0.133-0.984,0.133c-0.563,0-1.011-0.138-1.344-0.414
				c-0.25-0.208-0.375-0.492-0.375-0.852c0-0.182,0.067-0.602,0.203-1.258l1.008-4.82h-1.117l0.227-1.094h1.117l0.43-2.039
				l1.617-0.977l-0.633,3.016h1.391l-0.234,1.094h-1.383l-0.961,4.586c-0.12,0.583-0.18,0.932-0.18,1.047
				c0,0.167,0.048,0.294,0.145,0.383s0.254,0.133,0.473,0.133C253.51,20.945,253.788,20.914,254.033,20.852z"/>
			<path d="M261.268,19.18l1.375,0.141c-0.198,0.682-0.652,1.331-1.363,1.945s-1.559,0.922-2.543,0.922
				c-0.614,0-1.179-0.142-1.691-0.426s-0.903-0.697-1.172-1.238s-0.402-1.159-0.402-1.852c0-0.906,0.21-1.785,0.629-2.637
				s0.962-1.484,1.629-1.898s1.388-0.621,2.164-0.621c0.989,0,1.78,0.307,2.371,0.922s0.887,1.453,0.887,2.516
				c0,0.406-0.036,0.823-0.109,1.25h-6.109c-0.021,0.162-0.031,0.307-0.031,0.438c0,0.776,0.179,1.369,0.535,1.777
				s0.793,0.613,1.309,0.613c0.484,0,0.961-0.159,1.43-0.477S261.007,19.779,261.268,19.18z M257.158,17.125h4.656
				c0.005-0.146,0.008-0.25,0.008-0.313c0-0.708-0.177-1.251-0.531-1.629s-0.81-0.566-1.367-0.566c-0.604,0-1.155,0.208-1.652,0.625
				S257.403,16.287,257.158,17.125z"/>
		</g>
		<g>
			<path d="M50.051,57.529l2.391-11.453h1.414l-0.852,4.094c0.448-0.412,0.854-0.702,1.219-0.871
				c0.364-0.169,0.745-0.254,1.141-0.254c0.776,0,1.423,0.289,1.941,0.867c0.518,0.578,0.777,1.419,0.777,2.523
				c0,0.734-0.104,1.406-0.313,2.016c-0.208,0.609-0.466,1.121-0.773,1.535c-0.308,0.414-0.625,0.745-0.953,0.992
				s-0.664,0.432-1.008,0.555s-0.675,0.184-0.992,0.184c-0.547,0-1.029-0.145-1.445-0.434c-0.417-0.289-0.742-0.73-0.977-1.324
				l-0.328,1.57H50.051z M52.145,54.123l-0.008,0.266c0,0.708,0.169,1.248,0.508,1.617c0.338,0.37,0.76,0.555,1.266,0.555
				c0.495,0,0.949-0.173,1.363-0.52s0.754-0.887,1.02-1.621s0.398-1.412,0.398-2.031c0-0.698-0.168-1.24-0.504-1.625
				s-0.751-0.578-1.246-0.578c-0.511,0-0.979,0.197-1.406,0.59c-0.427,0.393-0.784,0.999-1.07,1.816
				C52.251,53.201,52.145,53.711,52.145,54.123z"/>
			<path d="M58.95,57.529l1.734-8.297h1.25l-0.352,1.695c0.427-0.641,0.845-1.115,1.254-1.422c0.409-0.307,0.827-0.461,1.254-0.461
				c0.281,0,0.627,0.102,1.039,0.305l-0.578,1.313c-0.245-0.177-0.513-0.266-0.805-0.266c-0.495,0-1.003,0.276-1.523,0.828
				c-0.521,0.552-0.93,1.544-1.227,2.977l-0.703,3.328H58.95z"/>
			<path d="M70.372,54.708l1.375,0.141c-0.198,0.682-0.652,1.331-1.363,1.945s-1.559,0.922-2.543,0.922
				c-0.615,0-1.179-0.142-1.691-0.426c-0.513-0.284-0.904-0.697-1.172-1.238c-0.269-0.542-0.402-1.159-0.402-1.852
				c0-0.906,0.209-1.785,0.629-2.637c0.419-0.852,0.962-1.484,1.629-1.898c0.667-0.414,1.388-0.621,2.164-0.621
				c0.989,0,1.78,0.307,2.371,0.922c0.591,0.615,0.887,1.453,0.887,2.516c0,0.406-0.037,0.823-0.109,1.25h-6.109
				c-0.021,0.162-0.031,0.307-0.031,0.438c0,0.776,0.178,1.369,0.535,1.777c0.356,0.409,0.793,0.613,1.309,0.613
				c0.484,0,0.961-0.159,1.43-0.477S70.111,55.308,70.372,54.708z M66.262,52.654h4.656c0.005-0.146,0.008-0.25,0.008-0.313
				c0-0.708-0.177-1.251-0.531-1.629c-0.354-0.377-0.81-0.566-1.367-0.566c-0.604,0-1.155,0.208-1.652,0.625
				C66.878,51.188,66.507,51.815,66.262,52.654z"/>
			<path d="M78.903,54.505l1.414,0.148c-0.354,1.037-0.858,1.806-1.512,2.309c-0.654,0.502-1.397,0.754-2.23,0.754
				c-0.901,0-1.632-0.292-2.191-0.875c-0.56-0.583-0.84-1.398-0.84-2.445c0-0.906,0.18-1.797,0.539-2.672s0.874-1.541,1.543-1.996
				c0.669-0.456,1.434-0.684,2.293-0.684c0.891,0,1.596,0.251,2.117,0.754c0.521,0.502,0.781,1.168,0.781,1.996l-1.391,0.094
				c-0.005-0.526-0.158-0.938-0.457-1.234c-0.3-0.297-0.694-0.445-1.184-0.445c-0.568,0-1.06,0.18-1.477,0.539
				c-0.417,0.359-0.744,0.905-0.98,1.637c-0.237,0.732-0.355,1.436-0.355,2.113c0,0.708,0.156,1.24,0.469,1.594
				s0.698,0.531,1.156,0.531c0.458,0,0.897-0.174,1.316-0.523C78.333,55.75,78.663,55.219,78.903,54.505z"/>
			<path d="M81.176,57.529l2.391-11.453h1.414l-0.914,4.398c0.526-0.51,1.016-0.876,1.469-1.098s0.919-0.332,1.398-0.332
				c0.688,0,1.221,0.181,1.602,0.543c0.38,0.362,0.57,0.84,0.57,1.434c0,0.292-0.083,0.828-0.25,1.609l-1.023,4.898h-1.414
				l1.055-5.023c0.151-0.729,0.227-1.188,0.227-1.375c0-0.271-0.094-0.492-0.281-0.664s-0.458-0.258-0.813-0.258
				c-0.511,0-0.998,0.134-1.461,0.402c-0.464,0.268-0.827,0.635-1.09,1.102c-0.263,0.466-0.504,1.217-0.723,2.254l-0.742,3.563
				H81.176z"/>
			<path d="M96.168,54.708l1.375,0.141c-0.198,0.682-0.652,1.331-1.363,1.945s-1.559,0.922-2.543,0.922
				c-0.615,0-1.179-0.142-1.691-0.426c-0.513-0.284-0.904-0.697-1.172-1.238c-0.269-0.542-0.402-1.159-0.402-1.852
				c0-0.906,0.209-1.785,0.629-2.637c0.419-0.852,0.962-1.484,1.629-1.898c0.667-0.414,1.388-0.621,2.164-0.621
				c0.989,0,1.78,0.307,2.371,0.922c0.591,0.615,0.887,1.453,0.887,2.516c0,0.406-0.037,0.823-0.109,1.25h-6.109
				c-0.021,0.162-0.031,0.307-0.031,0.438c0,0.776,0.178,1.369,0.535,1.777c0.356,0.409,0.793,0.613,1.309,0.613
				c0.484,0,0.961-0.159,1.43-0.477S95.908,55.308,96.168,54.708z M92.059,52.654h4.656c0.005-0.146,0.008-0.25,0.008-0.313
				c0-0.708-0.177-1.251-0.531-1.629c-0.354-0.377-0.81-0.566-1.367-0.566c-0.604,0-1.155,0.208-1.652,0.625
				C92.675,51.188,92.304,51.815,92.059,52.654z"/>
			<path d="M98.973,57.529l1.734-8.297h1.281l-0.305,1.445c0.557-0.568,1.078-0.982,1.563-1.242s0.979-0.391,1.484-0.391
				c0.672,0,1.199,0.182,1.582,0.547s0.574,0.852,0.574,1.461c0,0.307-0.068,0.792-0.203,1.453l-1.055,5.023h-1.414l1.102-5.258
				c0.109-0.51,0.164-0.888,0.164-1.133c0-0.276-0.095-0.5-0.285-0.672c-0.19-0.172-0.465-0.258-0.824-0.258
				c-0.724,0-1.369,0.26-1.934,0.781c-0.565,0.521-0.98,1.414-1.246,2.68l-0.805,3.859H98.973z"/>
			<path d="M113.465,56.326c-0.808,0.927-1.651,1.391-2.531,1.391c-0.787,0-1.441-0.291-1.965-0.871s-0.785-1.423-0.785-2.527
				c0-1.01,0.207-1.934,0.621-2.77s0.932-1.462,1.555-1.879c0.622-0.417,1.246-0.625,1.871-0.625c1.031,0,1.81,0.498,2.336,1.492
				l0.938-4.461h1.406l-2.391,11.453h-1.305L113.465,56.326z M109.59,54.052c0,0.578,0.057,1.034,0.172,1.367
				c0.114,0.333,0.31,0.611,0.586,0.832c0.276,0.221,0.606,0.332,0.992,0.332c0.641,0,1.221-0.333,1.742-1
				c0.698-0.885,1.047-1.979,1.047-3.281c0-0.656-0.172-1.169-0.516-1.539s-0.776-0.555-1.297-0.555
				c-0.339,0-0.647,0.076-0.926,0.227c-0.279,0.151-0.555,0.408-0.828,0.77s-0.504,0.822-0.691,1.379S109.59,53.63,109.59,54.052z"
				/>
			<path d="M122.864,54.708l1.375,0.141c-0.198,0.682-0.652,1.331-1.363,1.945s-1.559,0.922-2.543,0.922
				c-0.615,0-1.179-0.142-1.691-0.426c-0.513-0.284-0.904-0.697-1.172-1.238c-0.269-0.542-0.402-1.159-0.402-1.852
				c0-0.906,0.209-1.785,0.629-2.637c0.419-0.852,0.962-1.484,1.629-1.898c0.667-0.414,1.388-0.621,2.164-0.621
				c0.989,0,1.78,0.307,2.371,0.922c0.591,0.615,0.887,1.453,0.887,2.516c0,0.406-0.037,0.823-0.109,1.25h-6.109
				c-0.021,0.162-0.031,0.307-0.031,0.438c0,0.776,0.178,1.369,0.535,1.777c0.356,0.409,0.793,0.613,1.309,0.613
				c0.484,0,0.961-0.159,1.43-0.477S122.603,55.308,122.864,54.708z M118.754,52.654h4.656c0.005-0.146,0.008-0.25,0.008-0.313
				c0-0.708-0.177-1.251-0.531-1.629c-0.354-0.377-0.81-0.566-1.367-0.566c-0.604,0-1.155,0.208-1.652,0.625
				C119.37,51.188,118.999,51.815,118.754,52.654z"/>
			<path d="M125.668,57.529l1.734-8.297h1.25l-0.352,1.695c0.427-0.641,0.845-1.115,1.254-1.422
				c0.409-0.307,0.827-0.461,1.254-0.461c0.281,0,0.627,0.102,1.039,0.305l-0.578,1.313c-0.245-0.177-0.513-0.266-0.805-0.266
				c-0.495,0-1.003,0.276-1.523,0.828c-0.521,0.552-0.93,1.544-1.227,2.977l-0.703,3.328H125.668z"/>
			<path d="M137.614,57.529l-0.703-11.453h1.555l0.266,5.664c0.016,0.271,0.042,1.005,0.078,2.203
				c0.01,0.333,0.016,0.568,0.016,0.703c0,0.088-0.003,0.346-0.008,0.773c0.635-1.302,1.094-2.219,1.375-2.75l3.484-6.594h1.578
				l0.383,6.695c0.042,0.766,0.07,1.688,0.086,2.766c0.094-0.266,0.26-0.662,0.5-1.188c0.38-0.849,0.661-1.456,0.844-1.82
				l3.266-6.453h1.563l-5.828,11.453h-1.641l-0.383-6.938c-0.037-0.594-0.065-1.323-0.086-2.188
				c-0.318,0.724-0.583,1.287-0.797,1.688l-3.969,7.438H137.614z"/>
			<path d="M150.348,57.529l1.734-8.297h1.414l-1.734,8.297H150.348z M152.411,47.677l0.336-1.602h1.406l-0.336,1.602H152.411z"/>
			<path d="M153.958,57.529l1.734-8.297h1.281l-0.305,1.445c0.557-0.568,1.078-0.982,1.563-1.242s0.979-0.391,1.484-0.391
				c0.672,0,1.199,0.182,1.582,0.547s0.574,0.852,0.574,1.461c0,0.307-0.068,0.792-0.203,1.453l-1.055,5.023H159.2l1.102-5.258
				c0.109-0.51,0.164-0.888,0.164-1.133c0-0.276-0.095-0.5-0.285-0.672c-0.19-0.172-0.465-0.258-0.824-0.258
				c-0.724,0-1.369,0.26-1.934,0.781c-0.565,0.521-0.98,1.414-1.246,2.68l-0.805,3.859H153.958z"/>
			<path d="M162.872,57.529l2.398-11.453h1.406l-1.484,7.102l4.125-3.945h1.867l-3.539,3.094l2.141,5.203h-1.547l-1.656-4.258
				l-1.719,1.484l-0.578,2.773H162.872z"/>
			<path d="M176.95,54.708l1.375,0.141c-0.198,0.682-0.652,1.331-1.363,1.945s-1.559,0.922-2.543,0.922
				c-0.615,0-1.179-0.142-1.691-0.426c-0.513-0.284-0.904-0.697-1.172-1.238c-0.269-0.542-0.402-1.159-0.402-1.852
				c0-0.906,0.209-1.785,0.629-2.637c0.419-0.852,0.962-1.484,1.629-1.898c0.667-0.414,1.388-0.621,2.164-0.621
				c0.989,0,1.78,0.307,2.371,0.922c0.591,0.615,0.887,1.453,0.887,2.516c0,0.406-0.037,0.823-0.109,1.25h-6.109
				c-0.021,0.162-0.031,0.307-0.031,0.438c0,0.776,0.178,1.369,0.535,1.777c0.356,0.409,0.793,0.613,1.309,0.613
				c0.484,0,0.961-0.159,1.43-0.477S176.689,55.308,176.95,54.708z M172.84,52.654h4.656c0.005-0.146,0.008-0.25,0.008-0.313
				c0-0.708-0.177-1.251-0.531-1.629c-0.354-0.377-0.81-0.566-1.367-0.566c-0.604,0-1.155,0.208-1.652,0.625
				C173.456,51.188,173.085,51.815,172.84,52.654z"/>
			<path d="M179.645,57.529l2.391-11.453h1.414l-2.391,11.453H179.645z"/>
		</g>
		<g>
			<path d="M133.275,300.732l2.391-11.453h1.414l-0.852,4.094c0.448-0.412,0.854-0.701,1.219-0.871s0.745-0.254,1.141-0.254
				c0.776,0,1.423,0.289,1.941,0.867s0.777,1.42,0.777,2.523c0,0.734-0.104,1.406-0.313,2.016s-0.466,1.121-0.773,1.535
				s-0.625,0.744-0.953,0.992s-0.664,0.432-1.008,0.555s-0.675,0.184-0.992,0.184c-0.547,0-1.028-0.145-1.445-0.434
				s-0.742-0.73-0.977-1.324l-0.328,1.57H133.275z M135.369,297.326l-0.008,0.266c0,0.709,0.169,1.248,0.508,1.617
				s0.761,0.555,1.266,0.555c0.495,0,0.949-0.174,1.363-0.52s0.754-0.887,1.02-1.621s0.398-1.412,0.398-2.031
				c0-0.697-0.168-1.24-0.504-1.625s-0.751-0.578-1.246-0.578c-0.511,0-0.979,0.197-1.406,0.59s-0.784,0.998-1.07,1.816
				C135.476,296.404,135.369,296.914,135.369,297.326z"/>
			<path d="M142.174,300.732l1.734-8.297h1.25l-0.352,1.695c0.427-0.641,0.845-1.115,1.254-1.422s0.827-0.461,1.254-0.461
				c0.281,0,0.628,0.102,1.039,0.305l-0.578,1.313c-0.245-0.178-0.513-0.266-0.805-0.266c-0.495,0-1.003,0.275-1.523,0.828
				s-0.93,1.545-1.227,2.977l-0.703,3.328H142.174z"/>
			<path d="M153.596,297.912l1.375,0.141c-0.198,0.682-0.652,1.33-1.363,1.945s-1.559,0.922-2.543,0.922
				c-0.614,0-1.179-0.143-1.691-0.426s-0.903-0.697-1.172-1.238s-0.402-1.158-0.402-1.852c0-0.906,0.21-1.785,0.629-2.637
				s0.962-1.484,1.629-1.898s1.388-0.621,2.164-0.621c0.989,0,1.78,0.307,2.371,0.922s0.887,1.453,0.887,2.516
				c0,0.406-0.036,0.822-0.109,1.25h-6.109c-0.021,0.162-0.031,0.307-0.031,0.438c0,0.775,0.179,1.369,0.535,1.777
				s0.793,0.613,1.309,0.613c0.484,0,0.961-0.158,1.43-0.477S153.335,298.512,153.596,297.912z M149.486,295.857h4.656
				c0.005-0.146,0.008-0.25,0.008-0.313c0-0.709-0.177-1.252-0.531-1.629s-0.81-0.566-1.367-0.566c-0.604,0-1.155,0.209-1.652,0.625
				S149.731,295.02,149.486,295.857z"/>
			<path d="M162.127,297.709l1.414,0.148c-0.354,1.037-0.858,1.807-1.512,2.309s-1.397,0.754-2.23,0.754
				c-0.901,0-1.632-0.291-2.191-0.875s-0.84-1.398-0.84-2.445c0-0.906,0.18-1.797,0.539-2.672s0.874-1.541,1.543-1.996
				s1.434-0.684,2.293-0.684c0.891,0,1.597,0.252,2.117,0.754s0.781,1.168,0.781,1.996l-1.391,0.094
				c-0.005-0.525-0.157-0.938-0.457-1.234s-0.694-0.445-1.184-0.445c-0.567,0-1.06,0.18-1.477,0.539s-0.743,0.904-0.98,1.637
				s-0.355,1.436-0.355,2.113c0,0.709,0.156,1.24,0.469,1.594s0.698,0.531,1.156,0.531s0.897-0.174,1.316-0.523
				S161.888,298.422,162.127,297.709z"/>
			<path d="M164.4,300.732l2.391-11.453h1.414l-0.914,4.398c0.526-0.51,1.016-0.877,1.469-1.098s0.919-0.332,1.398-0.332
				c0.688,0,1.222,0.182,1.602,0.543s0.57,0.84,0.57,1.434c0,0.291-0.083,0.828-0.25,1.609l-1.023,4.898h-1.414l1.055-5.023
				c0.151-0.729,0.227-1.188,0.227-1.375c0-0.271-0.094-0.492-0.281-0.664s-0.458-0.258-0.813-0.258
				c-0.511,0-0.997,0.135-1.461,0.402s-0.827,0.635-1.09,1.102s-0.504,1.217-0.723,2.254l-0.742,3.563H164.4z"/>
			<path d="M179.393,297.912l1.375,0.141c-0.198,0.682-0.652,1.33-1.363,1.945s-1.559,0.922-2.543,0.922
				c-0.614,0-1.179-0.143-1.691-0.426s-0.903-0.697-1.172-1.238s-0.402-1.158-0.402-1.852c0-0.906,0.21-1.785,0.629-2.637
				s0.962-1.484,1.629-1.898s1.388-0.621,2.164-0.621c0.989,0,1.78,0.307,2.371,0.922s0.887,1.453,0.887,2.516
				c0,0.406-0.036,0.822-0.109,1.25h-6.109c-0.021,0.162-0.031,0.307-0.031,0.438c0,0.775,0.179,1.369,0.535,1.777
				s0.793,0.613,1.309,0.613c0.484,0,0.961-0.158,1.43-0.477S179.132,298.512,179.393,297.912z M175.283,295.857h4.656
				c0.005-0.146,0.008-0.25,0.008-0.313c0-0.709-0.177-1.252-0.531-1.629s-0.81-0.566-1.367-0.566c-0.604,0-1.155,0.209-1.652,0.625
				S175.528,295.02,175.283,295.857z"/>
			<path d="M182.197,300.732l1.734-8.297h1.281l-0.305,1.445c0.558-0.568,1.078-0.982,1.563-1.242s0.979-0.391,1.484-0.391
				c0.672,0,1.199,0.182,1.582,0.547s0.574,0.852,0.574,1.461c0,0.307-0.067,0.791-0.203,1.453l-1.055,5.023h-1.414l1.102-5.258
				c0.109-0.51,0.164-0.889,0.164-1.133c0-0.275-0.095-0.5-0.285-0.672s-0.465-0.258-0.824-0.258c-0.724,0-1.368,0.26-1.934,0.781
				s-0.98,1.414-1.246,2.68l-0.805,3.859H182.197z"/>
			<path d="M196.689,299.529c-0.808,0.928-1.651,1.391-2.531,1.391c-0.786,0-1.441-0.291-1.965-0.871s-0.785-1.424-0.785-2.527
				c0-1.01,0.207-1.934,0.621-2.77s0.933-1.463,1.555-1.879s1.246-0.625,1.871-0.625c1.031,0,1.81,0.498,2.336,1.492l0.938-4.461
				h1.406l-2.391,11.453h-1.305L196.689,299.529z M192.814,297.256c0,0.578,0.058,1.033,0.172,1.367s0.31,0.611,0.586,0.832
				s0.606,0.332,0.992,0.332c0.641,0,1.222-0.334,1.742-1c0.698-0.885,1.047-1.979,1.047-3.281c0-0.656-0.172-1.17-0.516-1.539
				s-0.776-0.555-1.297-0.555c-0.339,0-0.647,0.076-0.926,0.227s-0.555,0.408-0.828,0.77s-0.504,0.822-0.691,1.379
				S192.814,296.834,192.814,297.256z"/>
			<path d="M206.088,297.912l1.375,0.141c-0.198,0.682-0.652,1.33-1.363,1.945s-1.559,0.922-2.543,0.922
				c-0.614,0-1.179-0.143-1.691-0.426s-0.903-0.697-1.172-1.238s-0.402-1.158-0.402-1.852c0-0.906,0.21-1.785,0.629-2.637
				s0.962-1.484,1.629-1.898s1.388-0.621,2.164-0.621c0.989,0,1.78,0.307,2.371,0.922s0.887,1.453,0.887,2.516
				c0,0.406-0.036,0.822-0.109,1.25h-6.109c-0.021,0.162-0.031,0.307-0.031,0.438c0,0.775,0.179,1.369,0.535,1.777
				s0.793,0.613,1.309,0.613c0.484,0,0.961-0.158,1.43-0.477S205.827,298.512,206.088,297.912z M201.979,295.857h4.656
				c0.005-0.146,0.008-0.25,0.008-0.313c0-0.709-0.177-1.252-0.531-1.629s-0.81-0.566-1.367-0.566c-0.604,0-1.155,0.209-1.652,0.625
				S202.224,295.02,201.979,295.857z"/>
			<path d="M213.533,300.732l2.391-11.453h7.445l-0.273,1.305h-5.914l-0.758,3.648h6.023l-0.273,1.305h-6.023l-1.086,5.195H213.533z
				"/>
			<path d="M223.002,300.732l2.391-11.453h1.414l-2.391,11.453H223.002z"/>
			<path d="M232.26,299.701c-0.489,0.422-0.961,0.73-1.414,0.926s-0.938,0.293-1.453,0.293c-0.766,0-1.383-0.225-1.852-0.676
				s-0.703-1.027-0.703-1.73c0-0.463,0.105-0.873,0.316-1.23s0.491-0.643,0.84-0.859s0.776-0.371,1.281-0.465
				c0.317-0.063,0.921-0.111,1.809-0.148s1.524-0.131,1.91-0.281c0.109-0.385,0.164-0.705,0.164-0.961
				c0-0.328-0.12-0.586-0.359-0.773c-0.328-0.26-0.808-0.391-1.438-0.391c-0.594,0-1.079,0.131-1.457,0.395
				s-0.652,0.637-0.824,1.121l-1.43-0.125c0.292-0.822,0.754-1.453,1.387-1.891s1.431-0.656,2.395-0.656
				c1.026,0,1.839,0.244,2.438,0.734c0.458,0.365,0.688,0.838,0.688,1.422c0,0.443-0.065,0.955-0.195,1.539l-0.461,2.063
				c-0.146,0.656-0.219,1.189-0.219,1.602c0,0.26,0.058,0.635,0.172,1.125h-1.43C232.346,300.461,232.291,300.117,232.26,299.701z
				 M232.783,296.529c-0.198,0.078-0.41,0.139-0.637,0.18s-0.605,0.086-1.137,0.133c-0.823,0.072-1.403,0.166-1.742,0.277
				s-0.594,0.291-0.766,0.535s-0.258,0.516-0.258,0.813c0,0.396,0.137,0.721,0.41,0.977s0.663,0.383,1.168,0.383
				c0.469,0,0.919-0.123,1.352-0.371s0.773-0.592,1.023-1.035S232.643,297.348,232.783,296.529z M229.619,291.146l0.336-1.602h1.477
				l-0.336,1.602H229.619z M232.502,291.146l0.336-1.602h1.469l-0.328,1.602H232.502z"/>
			<path d="M241.291,297.709l1.414,0.148c-0.354,1.037-0.858,1.807-1.512,2.309s-1.397,0.754-2.23,0.754
				c-0.901,0-1.632-0.291-2.191-0.875s-0.84-1.398-0.84-2.445c0-0.906,0.18-1.797,0.539-2.672s0.874-1.541,1.543-1.996
				s1.434-0.684,2.293-0.684c0.891,0,1.597,0.252,2.117,0.754s0.781,1.168,0.781,1.996l-1.391,0.094
				c-0.005-0.525-0.157-0.938-0.457-1.234s-0.694-0.445-1.184-0.445c-0.567,0-1.06,0.18-1.477,0.539s-0.743,0.904-0.98,1.637
				s-0.355,1.436-0.355,2.113c0,0.709,0.156,1.24,0.469,1.594s0.698,0.531,1.156,0.531s0.897-0.174,1.316-0.523
				S241.052,298.422,241.291,297.709z"/>
			<path d="M243.564,300.732l2.391-11.453h1.414l-0.914,4.398c0.526-0.51,1.016-0.877,1.469-1.098s0.919-0.332,1.398-0.332
				c0.688,0,1.222,0.182,1.602,0.543s0.57,0.84,0.57,1.434c0,0.291-0.083,0.828-0.25,1.609l-1.023,4.898h-1.414l1.055-5.023
				c0.151-0.729,0.227-1.188,0.227-1.375c0-0.271-0.094-0.492-0.281-0.664s-0.458-0.258-0.813-0.258
				c-0.511,0-0.997,0.135-1.461,0.402s-0.827,0.635-1.09,1.102s-0.504,1.217-0.723,2.254l-0.742,3.563H243.564z"/>
			<path d="M258.557,297.912l1.375,0.141c-0.198,0.682-0.652,1.33-1.363,1.945s-1.559,0.922-2.543,0.922
				c-0.614,0-1.179-0.143-1.691-0.426s-0.903-0.697-1.172-1.238s-0.402-1.158-0.402-1.852c0-0.906,0.21-1.785,0.629-2.637
				s0.962-1.484,1.629-1.898s1.388-0.621,2.164-0.621c0.989,0,1.78,0.307,2.371,0.922s0.887,1.453,0.887,2.516
				c0,0.406-0.036,0.822-0.109,1.25h-6.109c-0.021,0.162-0.031,0.307-0.031,0.438c0,0.775,0.179,1.369,0.535,1.777
				s0.793,0.613,1.309,0.613c0.484,0,0.961-0.158,1.43-0.477S258.296,298.512,258.557,297.912z M254.447,295.857h4.656
				c0.005-0.146,0.008-0.25,0.008-0.313c0-0.709-0.177-1.252-0.531-1.629s-0.81-0.566-1.367-0.566c-0.604,0-1.155,0.209-1.652,0.625
				S254.692,295.02,254.447,295.857z"/>
			<path d="M261.361,300.732l1.734-8.297h1.281l-0.305,1.445c0.558-0.568,1.078-0.982,1.563-1.242s0.979-0.391,1.484-0.391
				c0.672,0,1.199,0.182,1.582,0.547s0.574,0.852,0.574,1.461c0,0.307-0.067,0.791-0.203,1.453l-1.055,5.023h-1.414l1.102-5.258
				c0.109-0.51,0.164-0.889,0.164-1.133c0-0.275-0.095-0.5-0.285-0.672s-0.465-0.258-0.824-0.258c-0.724,0-1.368,0.26-1.934,0.781
				s-0.98,1.414-1.246,2.68l-0.805,3.859H261.361z"/>
		</g>
		<g>
			<path d="M160.195,125.333l2.398-11.453h3.547c0.646,0,1.125,0.026,1.438,0.078c0.511,0.088,0.941,0.244,1.293,0.465
				s0.624,0.523,0.816,0.906s0.289,0.806,0.289,1.27c0,0.63-0.173,1.185-0.52,1.664s-0.876,0.844-1.59,1.094
				c0.62,0.203,1.083,0.509,1.391,0.918s0.461,0.887,0.461,1.434c0,0.63-0.181,1.234-0.543,1.813s-0.841,1.025-1.438,1.34
				s-1.262,0.473-1.996,0.473H160.195z M162,124.037h2.609c0.692,0,1.159-0.023,1.398-0.07c0.484-0.083,0.878-0.225,1.18-0.426
				s0.539-0.465,0.711-0.793s0.258-0.672,0.258-1.031c0-0.537-0.168-0.944-0.504-1.223s-0.976-0.418-1.918-0.418h-2.906L162,124.037
				z M163.102,118.771h2.32c1.109,0,1.907-0.177,2.395-0.531s0.73-0.87,0.73-1.547c0-0.323-0.075-0.602-0.227-0.836
				s-0.353-0.405-0.605-0.512s-0.728-0.16-1.426-0.16h-2.438L163.102,118.771z"/>
			<path d="M170.703,125.333l1.734-8.297h1.25l-0.352,1.695c0.427-0.641,0.845-1.115,1.254-1.422s0.827-0.461,1.254-0.461
				c0.281,0,0.628,0.102,1.039,0.305l-0.578,1.313c-0.245-0.177-0.513-0.266-0.805-0.266c-0.495,0-1.003,0.276-1.523,0.828
				s-0.93,1.544-1.227,2.977l-0.703,3.328H170.703z"/>
			<path d="M182.125,122.513l1.375,0.141c-0.198,0.682-0.652,1.331-1.363,1.945s-1.559,0.922-2.543,0.922
				c-0.614,0-1.179-0.142-1.691-0.426s-0.903-0.697-1.172-1.238s-0.402-1.159-0.402-1.852c0-0.906,0.21-1.785,0.629-2.637
				s0.962-1.484,1.629-1.898s1.388-0.621,2.164-0.621c0.989,0,1.78,0.307,2.371,0.922s0.887,1.453,0.887,2.516
				c0,0.406-0.036,0.823-0.109,1.25h-6.109c-0.021,0.162-0.031,0.307-0.031,0.438c0,0.776,0.179,1.369,0.535,1.777
				s0.793,0.613,1.309,0.613c0.484,0,0.961-0.159,1.43-0.477S181.864,123.112,182.125,122.513z M178.016,120.458h4.656
				c0.005-0.146,0.008-0.25,0.008-0.313c0-0.708-0.177-1.251-0.531-1.629s-0.81-0.566-1.367-0.566c-0.604,0-1.155,0.208-1.652,0.625
				S178.261,119.62,178.016,120.458z"/>
			<path d="M190.656,122.31l1.414,0.148c-0.354,1.037-0.858,1.806-1.512,2.309s-1.397,0.754-2.23,0.754
				c-0.901,0-1.632-0.292-2.191-0.875s-0.84-1.398-0.84-2.445c0-0.906,0.18-1.797,0.539-2.672s0.874-1.541,1.543-1.996
				s1.434-0.684,2.293-0.684c0.891,0,1.597,0.251,2.117,0.754s0.781,1.168,0.781,1.996l-1.391,0.094
				c-0.005-0.526-0.157-0.938-0.457-1.234s-0.694-0.445-1.184-0.445c-0.567,0-1.06,0.18-1.477,0.539s-0.743,0.905-0.98,1.637
				s-0.355,1.436-0.355,2.113c0,0.708,0.156,1.24,0.469,1.594s0.698,0.531,1.156,0.531s0.897-0.174,1.316-0.523
				S190.417,123.023,190.656,122.31z"/>
			<path d="M192.93,125.333l2.391-11.453h1.414l-0.914,4.398c0.526-0.51,1.016-0.876,1.469-1.098s0.919-0.332,1.398-0.332
				c0.688,0,1.222,0.181,1.602,0.543s0.57,0.84,0.57,1.434c0,0.292-0.083,0.828-0.25,1.609l-1.023,4.898h-1.414l1.055-5.023
				c0.151-0.729,0.227-1.188,0.227-1.375c0-0.271-0.094-0.492-0.281-0.664s-0.458-0.258-0.813-0.258
				c-0.511,0-0.997,0.134-1.461,0.402s-0.827,0.635-1.09,1.102s-0.504,1.217-0.723,2.254l-0.742,3.563H192.93z"/>
			<path d="M201.609,125.333l0.227-1.094l4.461-5.023c0.317-0.354,0.672-0.721,1.063-1.102c-0.672,0.068-1.153,0.102-1.445,0.102
				h-3.086l0.25-1.18h6.414l-0.188,0.891l-4.5,5.055c-0.255,0.287-0.636,0.68-1.141,1.18c0.786-0.047,1.325-0.07,1.617-0.07h3.266
				l-0.258,1.242H201.609z"/>
			<path d="M215.422,124.302c-0.489,0.422-0.961,0.73-1.414,0.926s-0.938,0.293-1.453,0.293c-0.766,0-1.383-0.225-1.852-0.676
				s-0.703-1.027-0.703-1.73c0-0.463,0.105-0.874,0.316-1.23s0.491-0.643,0.84-0.859s0.776-0.371,1.281-0.465
				c0.317-0.063,0.921-0.112,1.809-0.148s1.524-0.13,1.91-0.281c0.109-0.385,0.164-0.706,0.164-0.961
				c0-0.328-0.12-0.586-0.359-0.773c-0.328-0.26-0.808-0.391-1.438-0.391c-0.594,0-1.079,0.131-1.457,0.395
				s-0.652,0.637-0.824,1.121l-1.43-0.125c0.292-0.823,0.754-1.453,1.387-1.891s1.431-0.656,2.395-0.656
				c1.026,0,1.839,0.245,2.438,0.734c0.458,0.365,0.688,0.838,0.688,1.422c0,0.443-0.065,0.956-0.195,1.539l-0.461,2.063
				c-0.146,0.656-0.219,1.19-0.219,1.602c0,0.26,0.058,0.635,0.172,1.125h-1.43C215.508,125.063,215.453,124.719,215.422,124.302z
				 M215.945,121.13c-0.198,0.078-0.41,0.138-0.637,0.18s-0.605,0.086-1.137,0.133c-0.823,0.073-1.403,0.166-1.742,0.277
				s-0.594,0.291-0.766,0.535s-0.258,0.516-0.258,0.813c0,0.396,0.137,0.721,0.41,0.977s0.663,0.383,1.168,0.383
				c0.469,0,0.919-0.124,1.352-0.371s0.773-0.592,1.023-1.035S215.805,121.948,215.945,121.13z"/>
			<path d="M218.727,125.333l2.391-11.453h1.414l-0.914,4.398c0.526-0.51,1.016-0.876,1.469-1.098s0.919-0.332,1.398-0.332
				c0.688,0,1.222,0.181,1.602,0.543s0.57,0.84,0.57,1.434c0,0.292-0.083,0.828-0.25,1.609l-1.023,4.898h-1.414l1.055-5.023
				c0.151-0.729,0.227-1.188,0.227-1.375c0-0.271-0.094-0.492-0.281-0.664s-0.458-0.258-0.813-0.258
				c-0.511,0-0.997,0.134-1.461,0.402s-0.827,0.635-1.09,1.102s-0.504,1.217-0.723,2.254l-0.742,3.563H218.727z"/>
			<path d="M227.516,125.333l2.391-11.453h1.414l-2.391,11.453H227.516z"/>
			<path d="M236.148,125.333v-8.297h1.266v1.18c0.609-0.912,1.489-1.367,2.641-1.367c0.5,0,0.96,0.09,1.379,0.27
				s0.733,0.416,0.941,0.707s0.354,0.638,0.438,1.039c0.052,0.26,0.078,0.716,0.078,1.367v5.102h-1.406v-5.047
				c0-0.573-0.055-1.001-0.164-1.285s-0.304-0.51-0.582-0.68s-0.605-0.254-0.98-0.254c-0.599,0-1.116,0.19-1.551,0.57
				s-0.652,1.102-0.652,2.164v4.531H236.148z"/>
		</g>
	</g>
</g>
</svg>
