<?xml version="1.0" encoding="UTF-8" standalone="no"?>
<!-- Created with Inkscape (http://www.inkscape.org/) -->

<svg
   xmlns:dc="http://purl.org/dc/elements/1.1/"
   xmlns:cc="http://creativecommons.org/ns#"
   xmlns:rdf="http://www.w3.org/1999/02/22-rdf-syntax-ns#"
   xmlns:svg="http://www.w3.org/2000/svg"
   xmlns="http://www.w3.org/2000/svg"
   xmlns:sodipodi="http://sodipodi.sourceforge.net/DTD/sodipodi-0.dtd"
   xmlns:inkscape="http://www.inkscape.org/namespaces/inkscape"
   width="210mm"
   height="297mm"
   viewBox="0 0 744.09448819 1052.3622047"
   id="svg2"
   version="1.1"
   inkscape:version="0.91 r13725"
   sodipodi:docname="strahlengang.svg"
   inkscape:export-filename="/home/luis/Documents/Goettingen/Uni_Goettingen/Physik/Exphy/Exphy_I/Praktikum/grundpraktikum/19_Prismen-_und_Gitterspektrometer/Luis/img/strahlengang3.png"
   inkscape:export-xdpi="600"
   inkscape:export-ydpi="600">
  <defs
     id="defs4" />
  <sodipodi:namedview
     id="base"
     pagecolor="#ffffff"
     bordercolor="#666666"
     borderopacity="1.0"
     inkscape:pageopacity="0.0"
     inkscape:pageshadow="2"
     inkscape:zoom="1.4142136"
     inkscape:cx="316.30292"
     inkscape:cy="809.79379"
     inkscape:document-units="px"
     inkscape:current-layer="layer3"
     showgrid="false"
     inkscape:window-width="1920"
     inkscape:window-height="987"
     inkscape:window-x="0"
     inkscape:window-y="33"
     inkscape:window-maximized="1" />
  <metadata
     id="metadata7">
    <rdf:RDF>
      <cc:Work
         rdf:about="">
        <dc:format>image/svg+xml</dc:format>
        <dc:type
           rdf:resource="http://purl.org/dc/dcmitype/StillImage" />
        <dc:title />
      </cc:Work>
    </rdf:RDF>
  </metadata>
  <g
     inkscape:groupmode="layer"
     id="layer5"
     inkscape:label="background">
    <rect
       style="fill:#ffffff;fill-opacity:1;stroke:none;stroke-width:1.39999998;stroke-miterlimit:4;stroke-dasharray:none;stroke-opacity:0"
       id="rect4182"
       width="595"
       height="282"
       x="111"
       y="77.362228"
       ry="10.1915" />
  </g>
  <g
     inkscape:groupmode="layer"
     id="layer4"
     inkscape:label="Layer 4">
    <rect
       style="fill:#ffe440;fill-opacity:1;stroke:none;stroke-width:2;stroke-miterlimit:4;stroke-dasharray:none;stroke-opacity:1"
       id="rect4168-3-6"
       width="9.7266703"
       height="138.84927"
       x="-148.15141"
       y="162.91074"
       transform="matrix(0.07251684,-0.99736719,0.96613523,0.25803627,0,0)" />
  </g>
  <g
     inkscape:groupmode="layer"
     id="layer2"
     inkscape:label="Layer 2">
    <text
       xml:space="preserve"
       style="font-style:normal;font-weight:normal;font-size:40px;line-height:125%;font-family:sans-serif;letter-spacing:0px;word-spacing:0px;fill:#000000;fill-opacity:1;stroke:none;stroke-width:1px;stroke-linecap:butt;stroke-linejoin:miter;stroke-opacity:1"
       x="263.25577"
       y="182.09891"
       id="text4181"
       sodipodi:linespacing="125%"><tspan
         sodipodi:role="line"
         x="263.25577"
         y="182.09891"
         id="tspan4185"
         style="font-size:17.5px">Spalt</tspan></text>
    <text
       xml:space="preserve"
       style="font-style:normal;font-weight:normal;font-size:40px;line-height:125%;font-family:sans-serif;letter-spacing:0px;word-spacing:0px;fill:#000000;fill-opacity:1;stroke:none;stroke-width:1px;stroke-linecap:butt;stroke-linejoin:miter;stroke-opacity:1"
       x="336.41461"
       y="285.38336"
       id="text4181-6"
       sodipodi:linespacing="125%"><tspan
         sodipodi:role="line"
         x="336.41461"
         y="285.38336"
         id="tspan4185-7"
         style="font-size:17.5px;text-align:center;text-anchor:middle">Auflösungs-</tspan><tspan
         sodipodi:role="line"
         x="336.41461"
         y="307.25836"
         style="font-size:17.5px;text-align:center;text-anchor:middle"
         id="tspan4217">Spalt</tspan></text>
    <text
       xml:space="preserve"
       style="font-style:normal;font-weight:normal;font-size:40px;line-height:125%;font-family:sans-serif;letter-spacing:0px;word-spacing:0px;fill:#000000;fill-opacity:1;stroke:none;stroke-width:1px;stroke-linecap:butt;stroke-linejoin:miter;stroke-opacity:1"
       x="388.42432"
       y="210.15105"
       id="text4181-56"
       sodipodi:linespacing="125%"><tspan
         sodipodi:role="line"
         x="388.42432"
         y="210.15105"
         id="tspan4185-2"
         style="font-size:17.5px">Prisma</tspan></text>
    <text
       xml:space="preserve"
       style="font-style:normal;font-weight:normal;font-size:40px;line-height:125%;font-family:sans-serif;letter-spacing:0px;word-spacing:0px;fill:#000000;fill-opacity:1;stroke:none;stroke-width:1px;stroke-linecap:butt;stroke-linejoin:miter;stroke-opacity:1"
       x="517.78131"
       y="170.34645"
       id="text4181-56-9"
       sodipodi:linespacing="125%"><tspan
         sodipodi:role="line"
         x="517.78131"
         y="170.34645"
         id="tspan4185-2-1"
         style="font-size:17.5px">Objektiv</tspan></text>
    <text
       xml:space="preserve"
       style="font-style:normal;font-weight:normal;font-size:40px;line-height:125%;font-family:sans-serif;letter-spacing:0px;word-spacing:0px;fill:#000000;fill-opacity:1;stroke:none;stroke-width:1px;stroke-linecap:butt;stroke-linejoin:miter;stroke-opacity:1"
       x="621.72601"
       y="243.07745"
       id="text4181-56-2"
       sodipodi:linespacing="125%"><tspan
         sodipodi:role="line"
         x="621.72601"
         y="243.07745"
         id="tspan4185-2-7"
         style="font-size:17.5px">Okular</tspan></text>
    <path
       sodipodi:type="star"
       style="fill:#ddf8fe;fill-opacity:1;stroke:#000000;stroke-width:1.39999998;stroke-miterlimit:4;stroke-dasharray:none;stroke-opacity:1"
       id="path4200"
       sodipodi:sides="3"
       sodipodi:cx="480.00003"
       sodipodi:cy="244.50507"
       sodipodi:r1="30.493393"
       sodipodi:r2="15.246696"
       sodipodi:arg1="1.2490458"
       sodipodi:arg2="2.2962433"
       inkscape:flatsided="false"
       inkscape:rounded="0"
       inkscape:randomized="0"
       d="m 489.64289,273.43364 -19.75858,-17.52095 -19.75859,-17.52095 25.05288,-8.35096 25.05288,-8.35096 -5.2943,25.87191 z"
       inkscape:transform-center-x="0.009304204"
       inkscape:transform-center-y="7.6153018"
       transform="matrix(0.94887601,0.31564905,-0.31564905,0.94887601,37.717304,-139.01147)" />
    <rect
       style="fill:#000000;fill-opacity:1;stroke:none;stroke-width:2;stroke-miterlimit:4;stroke-dasharray:none;stroke-opacity:1"
       id="rect4149"
       width="3.4681187"
       height="45.50909"
       x="326.38232"
       y="117.68085"
       transform="matrix(0.96592583,0.25881905,-0.25881905,0.96592583,0,0)" />
  </g>
  <g
     inkscape:groupmode="layer"
     id="layer3"
     inkscape:label="Layer 3">
    <path
       style="fill:#0000e8;fill-opacity:0.7579909;fill-rule:evenodd;stroke:none;stroke-width:1px;stroke-linecap:butt;stroke-linejoin:miter;stroke-opacity:1"
       d="m 430.04302,252.63463 0.64956,-1.53404 135.1282,-58.52029 10.72409,34.37559 z"
       id="path4310"
       inkscape:connector-curvature="0"
       sodipodi:nodetypes="ccccc" />
    <rect
       style="fill:#0000e8;fill-opacity:0.7579909;stroke:none;stroke-width:2;stroke-miterlimit:4;stroke-dasharray:none;stroke-opacity:1"
       id="rect4168-3-67-9-1"
       width="1.345132"
       height="28.682316"
       x="-263.23782"
       y="394.75562"
       transform="matrix(-0.02443218,-0.99970149,0.99970149,-0.02443218,0,0)" />
    <rect
       style="fill:#fc002e;fill-opacity:1;stroke:none;stroke-width:2;stroke-miterlimit:4;stroke-dasharray:none;stroke-opacity:1"
       id="rect4168-3-67-9-2"
       width="1.3447171"
       height="25.577196"
       x="-231.01926"
       y="413.94336"
       transform="matrix(0.05055765,-0.99872114,0.99833149,0.05774288,0,0)" />
    <rect
       style="fill:#fc002e;fill-opacity:0.75342464;stroke:none;stroke-width:2;stroke-miterlimit:4;stroke-dasharray:none;stroke-opacity:1"
       id="rect4168-3-67-9-2-0-9"
       width="1.345132"
       height="144.48589"
       x="-296.53946"
       y="399.4902"
       transform="matrix(-0.0975829,-0.9952274,0.9952274,-0.0975829,0,0)" />
    <path
       style="fill:#0000e8;fill-opacity:0.7579909;fill-rule:evenodd;stroke:none;stroke-width:1px;stroke-linecap:butt;stroke-linejoin:miter;stroke-opacity:1"
       d="m 576.53044,226.94897 -10.71465,-34.36116 52.35461,-15.63443 10.54985,34.44102 z"
       id="path4310-6"
       inkscape:connector-curvature="0"
       sodipodi:nodetypes="ccccc" />
    <path
       style="fill:#0000e8;fill-opacity:0.7579909;fill-rule:evenodd;stroke:none;stroke-width:1px;stroke-linecap:butt;stroke-linejoin:miter;stroke-opacity:1"
       d="m 628.66796,211.40726 -10.62359,-34.44419 45.08135,4.7216 0.39248,1.27707 z"
       id="path4310-6-2"
       inkscape:connector-curvature="0"
       sodipodi:nodetypes="ccccc" />
    <rect
       style="fill:#ffffff;fill-opacity:1;stroke:none;stroke-width:2;stroke-miterlimit:4;stroke-dasharray:none;stroke-opacity:1"
       id="rect4168-3-67-6-6"
       width="2.8582554"
       height="3.0072296"
       x="-189.33875"
       y="331.71191"
       transform="matrix(-0.42116668,-0.90698326,0.96817033,0.25029225,0,0)" />
    <rect
       style="fill:#000000;fill-opacity:1;stroke:none;stroke-width:2;stroke-miterlimit:4;stroke-dasharray:none;stroke-opacity:1"
       id="rect4168-3-67-6-6-1"
       width="2.5060134"
       height="1.4510378"
       x="-283.95721"
       y="260.9169"
       transform="matrix(-0.50384745,-0.86379265,0.99927023,0.03819687,0,0)" />
    <rect
       style="fill:#ffffff;fill-opacity:1;stroke:none;stroke-width:2;stroke-miterlimit:4;stroke-dasharray:none;stroke-opacity:1"
       id="rect4168-3-67-6-6-8"
       width="0.57589239"
       height="0.6776033"
       x="-227.33876"
       y="295.84402"
       transform="matrix(-0.49573899,-0.86847156,0.98103864,0.19381226,0,0)" />
    <path
       style="fill:#0000e8;fill-opacity:0.75799088;fill-rule:evenodd;stroke:none;stroke-width:1px;stroke-linecap:butt;stroke-linejoin:miter;stroke-opacity:1"
       d="m 448.59388,314.11786 0.64956,-1.53404 135.1282,-58.52029 10.72409,34.37559 z"
       id="path4310-3"
       inkscape:connector-curvature="0"
       sodipodi:nodetypes="ccccc" />
  </g>
  <g
     inkscape:label="Layer 1"
     inkscape:groupmode="layer"
     id="layer1">
    <rect
       style="fill:#ffe440;fill-opacity:1;stroke:none;stroke-width:2;stroke-miterlimit:4;stroke-dasharray:none;stroke-opacity:1"
       id="rect4168-3"
       width="5.3140945"
       height="104.36033"
       x="-142.92091"
       y="281.6087"
       transform="matrix(0.25881905,-0.96592583,0.96592583,0.25881905,0,0)" />
    <rect
       style="fill:#000000;fill-opacity:1;stroke:none;stroke-width:2;stroke-miterlimit:4;stroke-dasharray:none;stroke-opacity:1"
       id="rect4149-3"
       width="2.2419574"
       height="45.50909"
       x="385.90961"
       y="117.95694"
       transform="matrix(0.96592583,0.25881905,-0.25881905,0.96592583,0,0)" />
    <rect
       style="fill:#ffe440;fill-opacity:1;stroke:none;stroke-width:2;stroke-miterlimit:4;stroke-dasharray:none;stroke-opacity:1"
       id="rect4168-3-67"
       width="2.2379892"
       height="186.36516"
       x="-141.30722"
       y="268.89334"
       transform="matrix(0.25881905,-0.96592583,0.96592583,0.25881905,0,0)" />
    <rect
       style="fill:#ffe440;fill-opacity:1;stroke:none;stroke-width:2;stroke-miterlimit:4;stroke-dasharray:none;stroke-opacity:1"
       id="rect4168-3-67-6"
       width="2.8582554"
       height="3.0072296"
       x="-188.12201"
       y="333.42664"
       transform="matrix(-0.42116668,-0.90698326,0.96817033,0.25029225,0,0)" />
    <ellipse
       style="fill:#000000;fill-opacity:1;stroke:#000000;stroke-width:1.4;stroke-miterlimit:4;stroke-dasharray:none;stroke-opacity:1"
       id="path4443"
       cx="487.48703"
       cy="363.73706"
       rx="3.7880721"
       ry="26.011429"
       transform="matrix(0.95832257,-0.28568837,0.28568837,0.95832257,0,0)" />
    <ellipse
       style="fill:#000000;fill-opacity:1;stroke:#000000;stroke-width:1.39999998;stroke-miterlimit:4;stroke-dasharray:none;stroke-opacity:1"
       id="path4443-6"
       cx="541.32489"
       cy="364.76996"
       rx="4.9606609"
       ry="26.011429"
       transform="matrix(0.95832257,-0.28568837,0.28568837,0.95832257,0,0)" />
    <g
       id="g4512"
       transform="matrix(0.96592582,0.25881905,-0.25881905,0.96592582,160.82473,-76.234374)"
       style="fill:#ddf8fe;fill-opacity:1">
      <ellipse
         transform="matrix(0,-1,1,0,0,0)"
         ry="35.9674"
         rx="44.284119"
         cy="92.309113"
         cx="-256.25125"
         id="path4144"
         style="fill:#ddf8fe;fill-opacity:1;stroke:#000000;stroke-width:1.3755126;stroke-miterlimit:4;stroke-dasharray:none;stroke-opacity:1" />
      <rect
         transform="matrix(0,-1,1,0,0,0)"
         y="123.37187"
         x="-267.46988"
         height="16.348818"
         width="24.208652"
         id="rect4156"
         style="fill:#ddf8fe;fill-opacity:1;stroke:#000000;stroke-width:1.3755126;stroke-miterlimit:4;stroke-dasharray:none;stroke-opacity:1" />
      <rect
         y="242.47768"
         x="120.83479"
         height="25.86026"
         width="4.958693"
         id="rect4487"
         style="fill:#ddf8fe;fill-opacity:1;stroke:#000000;stroke-width:1.23953116;stroke-miterlimit:4;stroke-dasharray:none;stroke-opacity:0" />
      <rect
         y="265.24585"
         x="120.52193"
         height="3.0273519"
         width="5.7418566"
         id="rect4487-2"
         style="fill:#ddf8fe;fill-opacity:1;stroke:#000000;stroke-width:0.45636782;stroke-miterlimit:4;stroke-dasharray:none;stroke-opacity:0" />
    </g>
    <g
       id="g4305"
       style="fill:#ffffff;fill-opacity:1;stroke:none"
       transform="matrix(0.9961947,0.08715575,-0.08715575,0.9961947,21.799355,-31.96928)">
      <rect
         transform="matrix(-0.1456012,-0.98934336,0.97035236,-0.24169463,0,0)"
         y="517.24908"
         x="-358.39929"
         height="10.319262"
         width="9.2545128"
         id="rect4168-3-67-0"
         style="fill:#ffffff;fill-opacity:1;stroke:none;stroke-width:2;stroke-miterlimit:4;stroke-dasharray:none;stroke-opacity:1" />
      <rect
         transform="matrix(-0.1456012,-0.98934336,0.97035236,-0.24169463,0,0)"
         y="499.93048"
         x="-358.42532"
         height="10.319262"
         width="9.2545128"
         id="rect4168-3-67-0-9"
         style="fill:#ffffff;fill-opacity:1;stroke:none;stroke-width:2;stroke-miterlimit:4;stroke-dasharray:none;stroke-opacity:1" />
      <rect
         transform="matrix(-0.1456012,-0.98934336,0.97035236,-0.24169463,0,0)"
         y="482.76462"
         x="-357.69855"
         height="10.319262"
         width="9.2545128"
         id="rect4168-3-67-0-3"
         style="fill:#ffffff;fill-opacity:1;stroke:none;stroke-width:2;stroke-miterlimit:4;stroke-dasharray:none;stroke-opacity:1" />
    </g>
    <text
       xml:space="preserve"
       style="font-style:normal;font-weight:normal;font-size:40px;line-height:125%;font-family:sans-serif;letter-spacing:0px;word-spacing:0px;fill:#000000;fill-opacity:1;stroke:none;stroke-width:1px;stroke-linecap:butt;stroke-linejoin:miter;stroke-opacity:1"
       x="184.55615"
       y="188.84659"
       id="text4181-5"
       sodipodi:linespacing="125%"><tspan
         sodipodi:role="line"
         x="184.55615"
         y="188.84659"
         id="tspan4185-3"
         style="font-size:17.5px;text-align:center;text-anchor:middle">Hg-</tspan><tspan
         sodipodi:role="line"
         x="184.55615"
         y="210.72159"
         style="font-size:17.5px;text-align:center;text-anchor:middle"
         id="tspan4215">Lampe</tspan></text>
  </g>
</svg>
